<svg xmlns:rdf="http://www.w3.org/1999/02/22-rdf-syntax-ns#" xmlns="http://www.w3.org/2000/svg" height="45" width="165" version="1.1" xmlns:cc="http://creativecommons.org/ns#" xmlns:dc="http://purl.org/dc/elements/1.1/" viewBox="0 0 165 45.000001">
 <g transform="translate(0 -1007.4)">
  <path style="stroke-width:0;fill:#333" d="m22.426 1010.1a19.746 19.746 0 0 0 -19.746 19.746 19.746 19.746 0 0 0 19.746 19.746 19.746 19.746 0 0 0 19.746 -19.746 19.746 19.746 0 0 0 -19.746 -19.746zm-5.5625 10.162c2.7274 0 5.0716 1.7502 5.9765 4.1777 0.9049-2.4275 3.2473-4.1777 5.9746-4.1777 3.5004 0 6.3789 2.8766 6.3789 6.3769v7.6993c0 3.5003-2.8785 6.3789-6.3789 6.3789-2.1072 0-4.0014-1.036-5.1601-2.627l-1.1231-1.541 3.086-2.248 1.123 1.5429c0.4826 0.6298 1.2086 1.0567 2.0742 1.0567 1.4378 0 2.5625-1.1247 2.5625-2.5625v-1.8594c-0.7869 0.346-1.6546 0.5391-2.5625 0.539-2.7274 0-5.0697-1.75-5.9746-4.1777-0.9047 2.4277-3.249 4.1777-5.9765 4.1777-0.9078 0-1.7756-0.193-2.5625-0.539v5.5234 1.9082h-3.8164v-1.9082-11.363c0-3.5003 2.8786-6.3769 6.3789-6.3769zm0 3.8203a2.5666 2.5666 0 0 0 -2.5664 2.5664 2.5666 2.5666 0 0 0 2.5664 2.5664 2.5666 2.5666 0 0 0 2.5683 -2.5664 2.5666 2.5666 0 0 0 -2.5683 -2.5664zm11.957 0a2.5666 2.5666 0 0 0 -2.5664 2.5664 2.5666 2.5666 0 0 0 2.5664 2.5664 2.5666 2.5666 0 0 0 2.5664 -2.5664 2.5666 2.5666 0 0 0 -2.5664 -2.5664zm74.221 0.057v10.65h1.1406v-10.65h-1.1406zm58.047 0.2735v1.4902h1.2324v-1.4902h-1.2324zm-105.59 2.6484c-1.207 0-2.1141 0.4453-2.7226 1.3379v-1.2168h-1.1406v10.619h1.1406v-4.2442c0.6187 0.9027 1.5004 1.3535 2.6465 1.3535s2.0586-0.3799 2.7382-1.1406c0.6795-0.7506 1.0196-1.6796 1.0196-2.7852 0-1.1055-0.3401-2.0326-1.0196-2.7832-0.6796-0.7607-1.5667-1.1406-2.6621-1.1406zm8.4551 0c-1.1461 0-2.0642 0.3799-2.7539 1.1406-0.6694 0.7506-1.0039 1.6777-1.0039 2.7832 0 1.1056 0.3345 2.0346 1.0039 2.7852 0.6897 0.7607 1.5823 1.1406 2.6777 1.1406 1.207 0 2.1161-0.4473 2.7247-1.3398v1.2187h1.1406v-7.6074h-1.1406v1.2324c-0.6187-0.9027-1.5023-1.3535-2.6485-1.3535zm8.4238 0c-0.9839 0-1.7292 0.1927-2.2363 0.5781-0.4971 0.3753-0.7441 0.906-0.7441 1.5957 0 0.4666 0.1218 0.832 0.3652 1.0957 0.2536 0.2638 0.5681 0.4729 0.9434 0.625 0.3753 0.1522 0.7807 0.274 1.2168 0.3653 0.4463 0.081 0.8572 0.1775 1.2324 0.289 0.3753 0.1015 0.6842 0.2378 0.9277 0.4102 0.2535 0.1623 0.3809 0.4004 0.3809 0.7148 0 0.4666-0.2437 0.7956-0.7305 0.9883-0.213 0.081-0.4311 0.1376-0.6543 0.168-0.2232 0.03-0.4669 0.045-0.7305 0.045-0.2536 0-0.5116-0.04-0.7753-0.1211-0.7201-0.2434-1.1165-0.7142-1.1875-1.414h-1.1875c0.041 0.7201 0.3351 1.3017 0.8828 1.748 0.5984 0.5071 1.4057 0.7617 2.4199 0.7617 0.9534 0 1.7077-0.1927 2.2656-0.5781 0.5578-0.3956 0.8379-0.9627 0.8379-1.7031 0-0.4767-0.1273-0.8531-0.3809-1.127-0.2434-0.2738-0.5524-0.4865-0.9277-0.6386-0.3752-0.1623-0.786-0.2841-1.2324-0.3653-0.4361-0.091-0.8415-0.1876-1.2168-0.289-0.3752-0.1015-0.6898-0.2288-0.9434-0.3809-0.2434-0.1623-0.3652-0.3949-0.3652-0.6992 0-0.7303 0.5836-1.0957 1.75-1.0957 1.1766 0 1.8146 0.3963 1.916 1.1875h1.1563c-0.071-0.6187-0.3291-1.1169-0.7754-1.4922-0.5376-0.4463-1.274-0.668-2.2071-0.668zm7.9649 0c-1.1157 0-2.0248 0.3799-2.7246 1.1406-0.6796 0.7405-1.0196 1.6675-1.0196 2.7832s0.33997 2.0448 1.0196 2.7852c0.6998 0.7607 1.6089 1.1406 2.7246 1.1406 0.8926 0 1.6634-0.2326 2.3125-0.6992 0.6188-0.4564 1.044-1.06 1.2773-1.8105h-1.2324c-0.1724 0.4361-0.44706 0.7906-0.82226 1.0644-0.3753 0.2739-0.80607 0.4102-1.293 0.4102-0.8925 0-1.5925-0.2836-2.0996-0.8516-0.497-0.5477-0.74414-1.2276-0.74414-2.0391 0-0.8114 0.24714-1.4913 0.74414-2.039 0.2333-0.2637 0.51881-0.4709 0.85351-0.6231 0.3448-0.1521 0.7592-0.2285 1.2461-0.2285s0.91767 0.1383 1.293 0.4121c0.3752 0.2739 0.64986 0.6283 0.82226 1.0645h1.2324c-0.2333-0.7506-0.65854-1.3541-1.2773-1.8106-0.6491-0.4665-1.4199-0.6992-2.3125-0.6992zm16.922 0c-1.1461 0-2.0642 0.3799-2.7539 1.1406-0.6694 0.7506-1.0039 1.6777-1.0039 2.7832 0 1.1056 0.33451 2.0346 1.0039 2.7852 0.6897 0.7607 1.5823 1.1406 2.6777 1.1406 1.207 0 2.1161-0.4473 2.7246-1.3398v1.2187h1.1406v-7.6074h-1.1406v1.2324c-0.6186-0.9027-1.5023-1.3535-2.6484-1.3535zm15.422 0c-1.1462 0-2.0622 0.3745-2.752 1.125-0.6694 0.7303-1.0059 1.6429-1.0059 2.7383s0.33646 2.008 1.0059 2.7383c0.6898 0.7505 1.5823 1.1269 2.6777 1.1269 1.1968 0 2.104-0.4527 2.7227-1.3554v1.0507c0 0.7912-0.19825 1.3893-0.59375 1.795-0.3956 0.4057-1.0336 0.6093-1.916 0.6093-1.1562 0-1.898-0.3963-2.2226-1.1875h-1.2617c0.213 0.6695 0.61297 1.2076 1.2012 1.6133 0.5984 0.4057 1.4256 0.6074 2.4805 0.6074 1.0548 0 1.891-0.289 2.5098-0.8671 0.6288-0.568 0.94336-1.3988 0.94336-2.4942v-7.3789h-1.1406v1.2168c-0.6085-0.8926-1.4922-1.3379-2.6484-1.3379zm9.0801 0c-1.1361 0-2.0595 0.3799-2.7695 1.1406-0.6694 0.7303-1.0039 1.6574-1.0039 2.7832 0 1.1259 0.33451 2.0549 1.0039 2.7852 0.71 0.7607 1.6335 1.1406 2.7695 1.1406 1.1359 0 2.0576-0.3799 2.7676-1.1406 0.6695-0.7303 1.0039-1.6593 1.0039-2.7852 0-1.1258-0.3344-2.0529-1.0039-2.7832-0.71-0.7607-1.6317-1.1406-2.7676-1.1406zm9.2266 0c-0.4767 0-0.88415 0.08-1.2188 0.2422-0.8115 0.3753-1.3386 0.9589-1.582 1.75v-1.8711h-1.1406v7.6074h1.1406v-3.3476c0-0.8723 0.24357-1.6231 0.73047-2.252 0.5173-0.6593 1.1863-0.9883 2.0078-0.9883h0.13867v-1.1406h-0.0742-0.002zm5.2578 0c-0.4766 0-0.88199 0.08-1.2168 0.2422-0.8114 0.3753-1.3386 0.9589-1.582 1.75v-1.8711h-1.1406v7.6074h1.1406v-3.3476c0-0.8723 0.24366-1.6231 0.73046-2.252 0.5172-0.6593 1.1862-0.9883 2.0078-0.9883h0.13672v-1.1406h-0.0762zm4.4141 0c-1.1461 0-2.0642 0.3799-2.7539 1.1406-0.6694 0.7506-1.0039 1.6777-1.0039 2.7832 0 1.1056 0.33451 2.0346 1.0039 2.7852 0.6897 0.7607 1.5823 1.1406 2.6777 1.1406 1.207 0 2.1141-0.4473 2.7227-1.3398v1.2187h1.1406v-7.6074h-1.1406v1.2324c-0.6188-0.9027-1.5004-1.3535-2.6465-1.3535zm8.4375 0c-0.9839 0-1.7292 0.1927-2.2363 0.5781-0.497 0.3753-0.7461 0.906-0.7461 1.5957 0 0.4666 0.12174 0.832 0.36524 1.0957 0.2535 0.2638 0.56796 0.4729 0.94336 0.625 0.3752 0.1522 0.78265 0.274 1.2188 0.3653 0.4463 0.081 0.85722 0.1775 1.2324 0.289 0.3753 0.1015 0.68423 0.2378 0.92773 0.4102 0.2535 0.1623 0.37891 0.4004 0.37891 0.7148 0 0.4666-0.24172 0.7956-0.72851 0.9883-0.21301 0.081-0.4312 0.1376-0.6543 0.168-0.2232 0.03-0.46677 0.045-0.73047 0.045-0.2536 0-0.51364-0.04-0.77734-0.1211-0.7201-0.2434-1.1146-0.7142-1.1856-1.414h-1.1875c0.041 0.7201 0.33511 1.3017 0.88281 1.748 0.5984 0.5071 1.4057 0.7617 2.4199 0.7617 0.9534 0 1.7077-0.1927 2.2656-0.5781 0.5578-0.3956 0.83789-0.9627 0.83789-1.7031 0-0.4767-0.12726-0.8531-0.38086-1.127-0.2434-0.2738-0.55253-0.4865-0.92773-0.6386-0.3753-0.1623-0.78603-0.2841-1.2324-0.3653-0.4361-0.091-0.84149-0.1876-1.2168-0.289-0.3752-0.1015-0.68976-0.2288-0.94336-0.3809-0.2434-0.1623-0.36524-0.3949-0.36524-0.6992 0-0.7303 0.5836-1.0957 1.75-1.0957 1.1766 0 1.8146 0.3963 1.916 1.1875h1.1562c-0.071-0.6187-0.32899-1.1169-0.77539-1.4922-0.5375-0.4463-1.2739-0.668-2.207-0.668zm7.3398 0c-0.9838 0-1.7292 0.1927-2.2363 0.5781-0.4969 0.3753-0.74609 0.906-0.74609 1.5957 0 0.4666 0.12183 0.832 0.36523 1.0957 0.2536 0.2638 0.56806 0.4729 0.94336 0.625 0.3753 0.1522 0.7807 0.274 1.2168 0.3653 0.4463 0.081 0.85722 0.1775 1.2324 0.289 0.3754 0.1015 0.68629 0.2378 0.92969 0.4102 0.2535 0.1623 0.3789 0.4004 0.3789 0.7148 0 0.4666-0.24366 0.7956-0.73046 0.9883-0.213 0.081-0.4312 0.1376-0.6543 0.168-0.2232 0.03-0.46472 0.045-0.72852 0.045-0.2536 0-0.51364-0.04-0.77734-0.1211-0.7201-0.2434-1.1146-0.7142-1.1856-1.414h-1.1875c0.041 0.7201 0.33502 1.3017 0.88282 1.748 0.5984 0.5071 1.4038 0.7617 2.418 0.7617 0.9534 0 1.7097-0.1927 2.2676-0.5781 0.5579-0.3956 0.83789-0.9627 0.83789-1.7031 0-0.4767-0.12726-0.8531-0.38086-1.127-0.2434-0.2738-0.55243-0.4865-0.92773-0.6386-0.3753-0.1623-0.78612-0.2841-1.2324-0.3653-0.4362-0.091-0.84345-0.1876-1.2188-0.289-0.3752-0.1015-0.68781-0.2288-0.94141-0.3809-0.2434-0.1623-0.36523-0.3949-0.36523-0.6992 0-0.7303 0.58164-1.0957 1.748-1.0957 1.1766 0 1.8166 0.3963 1.918 1.1875h1.1562c-0.071-0.6187-0.32919-1.1169-0.77539-1.4922-0.5376-0.4463-1.2738-0.668-2.207-0.668zm-71.156 0.1211v4.4277c0 1.0143 0.31456 1.8306 0.94336 2.4493 0.2738 0.284 0.59183 0.4966 0.95703 0.6386 0.3651 0.142 0.80139 0.2129 1.3086 0.2129 0.5071 0 0.95997-0.1273 1.3555-0.3808 0.3956-0.2536 0.73011-0.5626 1.0039-0.9278v1.1875h1.1406v-7.6074h-1.1406v4.3809c0 0.6795-0.22362 1.2377-0.66992 1.6738-0.4462 0.426-0.98796 0.6387-1.627 0.6387-0.6289 0-1.1416-0.2072-1.5371-0.6231-0.39561-0.4158-0.59376-0.974-0.59376-1.6738v-4.3965h-1.1406zm75.85 0v7.6074h1.1406v-7.6074h-1.1406zm-105.79 0.9121c0.8115 0 1.4714 0.2836 1.9785 0.8516 0.4767 0.5376 0.7149 1.2175 0.7149 2.039 0 0.8216-0.2382 1.5015-0.7149 2.0391-0.5071 0.568-1.167 0.8516-1.9785 0.8516-0.8215 0-1.4706-0.2836-1.9473-0.8516-0.4564-0.5376-0.6836-1.2175-0.6836-2.0391 0-0.8215 0.2272-1.5014 0.6836-2.039 0.4767-0.568 1.1258-0.8516 1.9473-0.8516zm8.6836 0c0.8216 0 1.4706 0.2836 1.9473 0.8516 0.4564 0.5376 0.6855 1.2175 0.6855 2.039 0 0.8216-0.2291 1.5015-0.6855 2.0391-0.4767 0.568-1.1257 0.8516-1.9473 0.8516-0.8114 0-1.4695-0.2836-1.9766-0.8516-0.4768-0.5376-0.7148-1.2175-0.7148-2.0391 0-0.8215 0.238-1.5014 0.7148-2.039 0.5071-0.568 1.1652-0.8516 1.9766-0.8516zm33.311 0c0.8216 0 1.4707 0.2836 1.9473 0.8516 0.4565 0.5376 0.68555 1.2175 0.68555 2.039 0 0.8216-0.22905 1.5015-0.68555 2.0391-0.4766 0.568-1.1257 0.8516-1.9473 0.8516-0.8114 0-1.4695-0.2836-1.9766-0.8516-0.47669-0.5376-0.71484-1.2175-0.71484-2.0391 0-0.8215 0.23815-1.5014 0.71484-2.039 0.5071-0.568 1.1652-0.8516 1.9766-0.8516zm15.422 0c0.8013 0 1.4503 0.2746 1.9473 0.8223 0.4565 0.5274 0.68555 1.1964 0.68555 2.0078s-0.22905 1.4804-0.68555 2.0078c-0.2333 0.2536-0.51144 0.4572-0.83594 0.6094-0.3246 0.142-0.69543 0.2129-1.1113 0.2129-0.8215 0-1.4796-0.2746-1.9766-0.8223-0.4768-0.5375-0.71484-1.2065-0.71484-2.0078s0.23804-1.4703 0.71484-2.0078c0.497-0.5477 1.1551-0.8223 1.9766-0.8223zm9.0039 0c0.8215 0 1.4706 0.2836 1.9473 0.8516 0.4564 0.5376 0.6836 1.2175 0.6836 2.039 0 0.8216-0.2272 1.5015-0.6836 2.0391-0.4767 0.568-1.1258 0.8516-1.9473 0.8516-0.8217 0-1.4725-0.2836-1.9492-0.8516-0.4564-0.5376-0.68359-1.2175-0.68359-2.0391 0-0.8215 0.22719-1.5014 0.68359-2.039 0.4767-0.568 1.1275-0.8516 1.9492-0.8516zm18.973 0c0.8216 0 1.4726 0.2836 1.9492 0.8516 0.4565 0.5376 0.6836 1.2175 0.6836 2.039 0 0.8216-0.2271 1.5015-0.6836 2.0391-0.4766 0.568-1.1276 0.8516-1.9492 0.8516-0.81139 0-1.4694-0.2836-1.9766-0.8516-0.4767-0.5376-0.71484-1.2175-0.71484-2.0391 0-0.8215 0.23814-1.5014 0.71484-2.039 0.5072-0.568 1.1652-0.8516 1.9766-0.8516z"/>
 </g>
</svg>
