<?xml version="1.0" encoding="UTF-8" standalone="no"?>
<!-- Created with Inkscape (http://www.inkscape.org/) -->

<svg
   xmlns:dc="http://purl.org/dc/elements/1.1/"
   xmlns:cc="http://creativecommons.org/ns#"
   xmlns:rdf="http://www.w3.org/1999/02/22-rdf-syntax-ns#"
   xmlns:svg="http://www.w3.org/2000/svg"
   xmlns="http://www.w3.org/2000/svg"
   xmlns:sodipodi="http://sodipodi.sourceforge.net/DTD/sodipodi-0.dtd"
   xmlns:inkscape="http://www.inkscape.org/namespaces/inkscape"
   width="200"
   height="200"
   viewBox="0 0 199.99999 200"
   id="svg4405"
   version="1.1"
   inkscape:version="0.91 r13725"
   sodipodi:docname="logo_success.svg">
  <defs
     id="defs4407" />
  <sodipodi:namedview
     id="base"
     pagecolor="#ffffff"
     bordercolor="#666666"
     borderopacity="1.0"
     inkscape:pageopacity="0.0"
     inkscape:pageshadow="2"
     inkscape:zoom="0.31106211"
     inkscape:cx="286.88332"
     inkscape:cy="363.65492"
     inkscape:document-units="px"
     inkscape:current-layer="layer1"
     showgrid="false"
     units="px"
     inkscape:window-width="1366"
     inkscape:window-height="718"
     inkscape:window-x="0"
     inkscape:window-y="24"
     inkscape:window-maximized="1" />
  <metadata
     id="metadata4410">
    <rdf:RDF>
      <cc:Work
         rdf:about="">
        <dc:format>image/svg+xml</dc:format>
        <dc:type
           rdf:resource="http://purl.org/dc/dcmitype/StillImage" />
        <dc:title></dc:title>
      </cc:Work>
    </rdf:RDF>
  </metadata>
  <g
     inkscape:label="Capa 1"
     inkscape:groupmode="layer"
     id="layer1"
     transform="translate(0,-852.36216)">
    <path
       inkscape:connector-curvature="0"
       style="color:#218030;font-style:normal;font-variant:normal;font-weight:normal;font-stretch:normal;font-size:medium;line-height:normal;font-family:sans-serif;text-indent:0;text-align:start;text-decoration:none;text-decoration-line:none;text-decoration-style:solid;text-decoration-color:#000000;letter-spacing:normal;word-spacing:normal;text-transform:none;direction:ltr;block-progression:tb;writing-mode:lr-tb;baseline-shift:baseline;text-anchor:start;white-space:normal;clip-rule:nonzero;display:inline;overflow:visible;visibility:visible;opacity:1;isolation:auto;mix-blend-mode:normal;color-interpolation:sRGB;color-interpolation-filters:linearRGB;solid-color:#000000;solid-opacity:1;fill:#009132;fill-opacity:1;fill-rule:evenodd;stroke:none;stroke-width:3;stroke-linecap:round;stroke-linejoin:round;stroke-miterlimit:4;stroke-dasharray:none;stroke-dashoffset:0;stroke-opacity:1;color-rendering:auto;image-rendering:auto;shape-rendering:auto;text-rendering:auto;enable-background:accumulate"
       d="m 94.076909,875.60259 a 41.221273,41.221273 0 0 0 -41.19336,40.6558 l -21.854454,0 a 4.5927078,4.5927078 0 0 0 -4.192045,6.46339 l 29.879359,66.74126 a 4.5927078,4.5927078 0 0 0 4.192044,2.71668 l 67.418347,0 a 4.5927078,4.5927078 0 0 0 4.39511,-3.26453 l 23.53493,-78.05118 31.82867,0 a 4.5927078,4.5927078 0 1 0 0,-9.18418 l -35.24299,0 a 4.5927078,4.5927078 0 0 0 -4.39512,3.26454 l -23.53493,78.05116 -61.026732,0 -25.771571,-57.55298 15.700915,0 a 41.221273,41.221273 0 0 0 40.261827,32.60221 41.221273,41.221273 0 0 0 41.220131,-41.22005 41.221273,41.221273 0 0 0 -41.220131,-41.22212 z m 22.892811,25.76947 a 2.5472391,2.5472391 0 0 1 1.85078,4.26789 l -27.848004,31.30131 a 2.5472391,2.5472391 0 0 1 -3.830858,0 L 75.501343,923.49945 a 2.5472391,2.5472391 0 1 1 3.841052,-3.34251 l 9.750553,11.26273 25.917172,-29.14274 a 2.5472391,2.5472391 0 0 1 1.9596,-0.88436 l 0,-0.0205 z M 70.326502,1001.764 c -7.089802,0 -12.898022,5.8181 -12.898022,12.9105 0,7.0928 5.80822,12.9144 12.898022,12.9144 7.089803,0 12.898131,-5.8216 12.898131,-12.9144 0,-7.0924 -5.808328,-12.9105 -12.898131,-12.9105 z m 49.187478,0 c -7.08928,0 -12.89803,5.8181 -12.89803,12.9105 0,7.0928 5.80875,12.9144 12.89803,12.9144 7.08979,0 12.89812,-5.8216 12.89812,-12.9144 0,-7.0924 -5.80833,-12.9105 -12.89812,-12.9105 z m -49.187478,6.1228 c 3.776129,0 6.773267,2.9997 6.773267,6.7877 0,3.7883 -2.997138,6.7916 -6.773267,6.7916 -3.776128,0 -6.775262,-3.0033 -6.775262,-6.7916 0,-3.788 2.999134,-6.7877 6.775262,-6.7877 z m 49.187478,0 c 3.77613,0 6.77325,2.9997 6.77325,6.7877 0,3.7883 -2.99712,6.7916 -6.77325,6.7916 -3.77614,0 -6.77528,-3.0033 -6.77528,-6.7916 0,-3.788 2.99914,-6.7877 6.77528,-6.7877 z"
       id="path4298" />
  </g>
</svg>
