<?xml version="1.0" encoding="UTF-8" standalone="no"?>
<!-- Created with Inkscape (http://www.inkscape.org/) -->

<svg
   xmlns:dc="http://purl.org/dc/elements/1.1/"
   xmlns:cc="http://creativecommons.org/ns#"
   xmlns:rdf="http://www.w3.org/1999/02/22-rdf-syntax-ns#"
   xmlns:svg="http://www.w3.org/2000/svg"
   xmlns="http://www.w3.org/2000/svg"
   xmlns:sodipodi="http://sodipodi.sourceforge.net/DTD/sodipodi-0.dtd"
   xmlns:inkscape="http://www.inkscape.org/namespaces/inkscape"
   width="110"
   height="110"
   viewBox="0 0 110 110"
   id="svg5107"
   version="1.1"
   inkscape:version="0.91 r13725"
   sodipodi:docname="logo_bn.svg"
   inkscape:export-filename="/home/matias/sitio_pg/assets/logo_bn.png"
   inkscape:export-xdpi="63.81818"
   inkscape:export-ydpi="63.81818">
  <defs
     id="defs5109" />
  <sodipodi:namedview
     id="base"
     pagecolor="#ffffff"
     bordercolor="#666666"
     borderopacity="1.0"
     inkscape:pageopacity="0.0"
     inkscape:pageshadow="2"
     inkscape:zoom="1.4142136"
     inkscape:cx="64.14753"
     inkscape:cy="-0.58859543"
     inkscape:document-units="px"
     inkscape:current-layer="layer1"
     showgrid="false"
     units="px"
     inkscape:window-width="1366"
     inkscape:window-height="718"
     inkscape:window-x="0"
     inkscape:window-y="24"
     inkscape:window-maximized="1" />
  <metadata
     id="metadata5112">
    <rdf:RDF>
      <cc:Work
         rdf:about="">
        <dc:format>image/svg+xml</dc:format>
        <dc:type
           rdf:resource="http://purl.org/dc/dcmitype/StillImage" />
        <dc:title />
      </cc:Work>
    </rdf:RDF>
  </metadata>
  <g
     inkscape:label="Capa 1"
     inkscape:groupmode="layer"
     id="layer1"
     transform="translate(0,-942.36216)">
    <g
       transform="matrix(0.88772327,0,0,0.88772327,250.48114,435.98479)"
       id="g5080">
      <g
         transform="translate(-31.856143,-1.0276175)"
         id="g5032">
        <path
           inkscape:connector-curvature="0"
           style="opacity:1;fill:#1a1a1a;fill-opacity:1;stroke:#ffa000;stroke-width:0;stroke-linecap:square;stroke-linejoin:round;stroke-miterlimit:4;stroke-dasharray:none;stroke-opacity:1"
           d="m 44.777281,790.32471 a 61.073625,61.073625 0 0 1 -61.073626,61.07362 61.073625,61.073625 0 0 1 -61.073625,-61.07362 61.073625,61.073625 0 0 1 61.073625,-61.07362 61.073625,61.073625 0 0 1 61.073626,61.07362 z"
           id="path5078" />
        <path
           inkscape:connector-curvature="0"
           id="circle4278"
           d="m 38.653645,790.32471 a 54.949989,54.949989 0 0 1 -54.94999,54.94999 54.949989,54.949989 0 0 1 -54.949989,-54.94999 54.949989,54.949989 0 0 1 54.949989,-54.94999 54.949989,54.949989 0 0 1 54.94999,54.94999 z"
           style="opacity:1;fill:#cccccc;fill-opacity:1;stroke:#00323f;stroke-width:0;stroke-linecap:square;stroke-linejoin:round;stroke-miterlimit:4;stroke-dasharray:none;stroke-opacity:1" />
        <path
           style="color:#000000;font-style:normal;font-variant:normal;font-weight:normal;font-stretch:normal;font-size:medium;line-height:normal;font-family:sans-serif;text-indent:0;text-align:start;text-decoration:none;text-decoration-line:none;text-decoration-style:solid;text-decoration-color:#000000;letter-spacing:normal;word-spacing:normal;text-transform:none;direction:ltr;block-progression:tb;writing-mode:lr-tb;baseline-shift:baseline;text-anchor:start;white-space:normal;clip-rule:nonzero;display:inline;overflow:visible;visibility:visible;opacity:1;isolation:auto;mix-blend-mode:normal;color-interpolation:sRGB;color-interpolation-filters:linearRGB;solid-color:#000000;solid-opacity:1;fill:#1a1a1a;fill-opacity:1;fill-rule:nonzero;stroke:none;stroke-width:100;stroke-linecap:square;stroke-linejoin:round;stroke-miterlimit:4;stroke-dasharray:none;stroke-dashoffset:0;stroke-opacity:1;color-rendering:auto;image-rendering:auto;shape-rendering:auto;text-rendering:auto;enable-background:accumulate"
           d="m 0.99622,763.88814 c -9.740859,0 -17.751431,8.0104 -17.751441,17.7512 0,9.7409 8.010582,17.7512 17.751441,17.7512 2.526394,0 4.941008,-0.5383 7.130822,-1.5013 l 0,5.1743 c 0,4.0012 -3.129667,7.1308 -7.130822,7.1308 -2.40874,0 -4.428169,-1.188 -5.770907,-2.9405 l -3.126182,-4.2926 -8.585104,6.2524 3.126182,4.2923 c 3.224303,4.4273 8.49192,7.3088 14.356011,7.3088 9.740852,0 17.751232,-8.0103 17.751232,-17.7512 l 0,-21.4242 c 0,-9.7408 -8.01038,-17.7512 -17.751232,-17.7512 z"
           id="path4284"
           inkscape:connector-curvature="0"
           sodipodi:nodetypes="ssscssscccssss" />
        <path
           style="color:#000000;font-style:normal;font-variant:normal;font-weight:normal;font-stretch:normal;font-size:medium;line-height:normal;font-family:sans-serif;text-indent:0;text-align:start;text-decoration:none;text-decoration-line:none;text-decoration-style:solid;text-decoration-color:#000000;letter-spacing:normal;word-spacing:normal;text-transform:none;direction:ltr;block-progression:tb;writing-mode:lr-tb;baseline-shift:baseline;text-anchor:start;white-space:normal;clip-rule:nonzero;display:inline;overflow:visible;visibility:visible;opacity:1;isolation:auto;mix-blend-mode:normal;color-interpolation:sRGB;color-interpolation-filters:linearRGB;solid-color:#000000;solid-opacity:1;fill:#1a1a1a;fill-opacity:1;fill-rule:nonzero;stroke:none;stroke-width:100;stroke-linecap:square;stroke-linejoin:round;stroke-miterlimit:4;stroke-dasharray:none;stroke-dashoffset:0;stroke-opacity:1;color-rendering:auto;image-rendering:auto;shape-rendering:auto;text-rendering:auto;enable-background:accumulate"
           d="m -32.258938,763.88814 c -9.740849,0 -17.75123,8.0104 -17.75123,17.7512 l 0,31.6198 0,5.3102 10.62041,0 0,-5.3102 0,-15.3699 c 2.189801,0.963 4.604437,1.5013 7.13082,1.5013 9.740849,0 17.751229,-8.0103 17.751229,-17.7512 0,-9.7408 -8.01038,-17.7512 -17.751229,-17.7512 z"
           id="path4286"
           inkscape:connector-curvature="0"
           sodipodi:nodetypes="sscccccsss" />
        <path
           style="fill:#808080;fill-opacity:1;fill-rule:evenodd;stroke:none;stroke-width:1px;stroke-linecap:butt;stroke-linejoin:miter;stroke-opacity:1"
           d="m -49.949483,817.77024 -0.310105,0.7405 26.63876,26.6388 c 0,0 25.248124,4.0983 44.3286,-14.36 19.14663,-18.5223 17.48177,-37.2528 17.48177,-37.2528 l -24.97393,-24.9739 -0.005,0.2076 c 0.12263,0.116 0.25509,0.2213 0.37441,0.3407 0.40252,0.4025 0.78601,0.8239 1.14896,1.263 0.36294,0.439 0.70545,0.8955 1.02574,1.368 0.32029,0.4725 0.6184,0.9609 0.89298,1.4638 0.27457,0.5029 0.52552,1.0202 0.75131,1.5504 0.22579,0.5302 0.42657,1.0734 0.60051,1.6279 0.17394,0.5544 0.32114,1.1201 0.44016,1.6957 0.11904,0.5756 0.20986,1.1611 0.27091,1.7549 0.061,0.5937 0.0923,1.1958 0.0923,1.8046 l 0,21.4242 c 0,0.6088 -0.0312,1.2109 -0.0923,1.8046 -0.0611,0.5938 -0.15187,1.1792 -0.27091,1.7549 -0.11902,0.5756 -0.26622,1.1413 -0.44016,1.6957 -0.17394,0.5545 -0.37472,1.0977 -0.60051,1.6279 -0.22579,0.5302 -0.47674,1.0475 -0.75131,1.5504 -0.27458,0.5028 -0.57269,0.9913 -0.89298,1.4638 -0.32029,0.4725 -0.6628,0.929 -1.02574,1.368 -0.36295,0.439 -0.74644,0.8605 -1.14896,1.263 -0.40253,0.4026 -0.824,0.7861 -1.26304,1.149 -0.43904,0.3629 -0.89551,0.7054 -1.368,1.0257 -0.47249,0.3203 -0.96095,0.6185 -1.46383,0.893 -0.50288,0.2746 -1.02014,0.5255 -1.55034,0.7513 -0.53019,0.2258 -1.07345,0.4266 -1.627903,0.6005 -0.554449,0.174 -1.120114,0.3212 -1.69574,0.4402 -0.575637,0.119 -1.161108,0.2099 -1.754853,0.2709 -0.593755,0.061 -1.195837,0.092 -1.804641,0.092 -0.36651,0 -0.730631,-0.011 -1.092118,-0.033 -0.361498,-0.022 -0.720383,-0.055 -1.076156,-0.099 -0.355762,-0.044 -0.70854,-0.098 -1.057888,-0.1627 -0.349348,-0.065 -0.69535,-0.1394 -1.037561,-0.2242 -0.342221,-0.085 -0.680577,-0.1796 -1.014961,-0.284 -0.334373,-0.1044 -0.664646,-0.2185 -0.99047,-0.3418 -0.325834,-0.1233 -0.647144,-0.256 -0.963717,-0.3976 -0.316584,-0.1416 -0.628484,-0.2922 -0.935095,-0.4514 -0.306622,-0.1592 -0.608029,-0.327 -0.903988,-0.5032 -0.295949,-0.1762 -0.586406,-0.3607 -0.870991,-0.5532 -0.284584,-0.1926 -0.563232,-0.393 -0.835741,-0.6012 -0.272499,-0.2082 -0.53888,-0.424 -0.798602,-0.6472 -0.259722,-0.2231 -0.512966,-0.4538 -0.759189,-0.6913 -0.246234,-0.2376 -0.48547,-0.482 -0.717504,-0.7333 -0.232035,-0.2512 -0.456806,-0.5092 -0.67394,-0.7735 -0.217134,-0.2643 -0.426579,-0.535 -0.628102,-0.8117 l -3.12617,-4.2923 8.585104,-6.2524 3.126181,4.2926 c 0.167845,0.219 0.346321,0.4293 0.534748,0.6295 0.188428,0.2002 0.386817,0.3903 0.594701,0.5692 0.207894,0.1789 0.425315,0.3466 0.651541,0.5018 0.226236,0.1552 0.461191,0.2979 0.704643,0.4269 0.243441,0.129 0.495293,0.2443 0.754835,0.3447 0.259541,0.1004 0.526783,0.186 0.801299,0.2554 0.274516,0.069 0.556287,0.1225 0.844652,0.1585 0.288365,0.036 0.58339,0.054 0.884489,0.054 0.250068,0 0.49677,-0.012 0.739488,-0.036 0.242709,-0.024 0.481381,-0.06 0.715625,-0.1062 0.234254,-0.047 0.463984,-0.1046 0.68867,-0.173 0.224685,-0.068 0.444368,-0.1473 0.65838,-0.2362 0.214023,-0.089 0.422533,-0.188 0.624778,-0.2965 0.202255,-0.1084 0.398276,-0.2264 0.587648,-0.3532 0.189383,-0.1269 0.372012,-0.2626 0.547408,-0.4068 0.175407,-0.1441 0.343528,-0.2966 0.503853,-0.457 0.160316,-0.1603 0.312827,-0.3284 0.456967,-0.5038 0.14414,-0.1754 0.27991,-0.358 0.40677,-0.5474 0.12685,-0.1894 0.24478,-0.3854 0.35326,-0.5877 0.10846,-0.2022 0.20743,-0.4107 0.29641,-0.6247 0.089,-0.2141 0.16787,-0.4337 0.23626,-0.6584 0.0684,-0.2247 0.1263,-0.4544 0.173,-0.6887 0.0467,-0.2342 0.0823,-0.4729 0.1062,-0.7156 0.0239,-0.2427 0.0361,-0.4894 0.0361,-0.7395 l 0,-5.1743 c -0.54745,0.2407 -1.10888,0.455 -1.68266,0.6409 -0.573793,0.1859 -1.159934,0.3434 -1.756524,0.4709 -0.596581,0.1274 -1.203718,0.2249 -1.819574,0.2904 -0.615856,0.065 -1.240453,0.099 -1.872049,0.099 -0.473203,0 -0.942275,-0.019 -1.406588,-0.056 -0.464304,-0.037 -0.923774,-0.092 -1.377744,-0.1651 -0.45398,-0.073 -0.902565,-0.1629 -1.344767,-0.2699 -0.442212,-0.1069 -0.878021,-0.2307 -1.307022,-0.3704 -0.42899,-0.1398 -0.851183,-0.2955 -1.265528,-0.4665 -0.414344,-0.1711 -0.821011,-0.3575 -1.219276,-0.5584 -0.398255,-0.201 -0.78813,-0.4164 -1.168861,-0.6458 -0.380731,-0.2294 -0.75235,-0.4727 -1.114113,-0.7291 -0.361763,-0.2564 -0.713628,-0.526 -1.054989,-0.8079 -0.341351,-0.282 -0.672208,-0.5763 -0.991713,-0.8824 -0.319515,-0.3061 -0.627666,-0.624 -0.923901,-0.9528 -0.296224,-0.3287 -0.580405,-0.6684 -0.851905,-1.0184 -0.271511,-0.3501 -0.530246,-0.7105 -0.775588,-1.0803 -0.245342,-0.3699 -0.477355,-0.7492 -0.695095,-1.1374 -0.21774,-0.3882 -0.421354,-0.7853 -0.610047,-1.1904 -0.188703,-0.4051 -0.362432,-0.8184 -0.520655,-1.239 -0.158212,0.4206 -0.331951,0.8339 -0.520644,1.239 -0.188693,0.4051 -0.392318,0.8022 -0.610058,1.1904 -0.217729,0.3882 -0.449551,0.7675 -0.694883,1.1374 -0.245342,0.3698 -0.504299,0.73 -0.775789,1.0801 -0.2715,0.35 -0.555702,0.6899 -0.851916,1.0186 -0.296214,0.3288 -0.604397,0.6467 -0.923891,0.9528 -0.319504,0.3061 -0.650171,0.6004 -0.991521,0.8824 -0.34134,0.2819 -0.693237,0.5515 -1.054989,0.8079 -0.361753,0.2564 -0.733382,0.4997 -1.114102,0.7291 -0.380721,0.2294 -0.770617,0.4448 -1.168872,0.6458 -0.398244,0.2009 -0.804932,0.3873 -1.219266,0.5584 -0.414334,0.171 -0.836336,0.3267 -1.265326,0.4665 -0.42899,0.1397 -0.86482,0.2635 -1.307011,0.3704 -0.442202,0.107 -0.890798,0.1972 -1.344767,0.2699 -0.45398,0.073 -0.913451,0.128 -1.377754,0.1651 -0.464303,0.037 -0.933386,0.056 -1.406578,0.056 -0.631596,0 -1.256203,-0.034 -1.87206,-0.099 -0.615856,-0.065 -1.222982,-0.163 -1.819573,-0.2904 -0.596591,-0.1275 -1.182732,-0.285 -1.75652,-0.4709 -0.573779,-0.1859 -1.135216,-0.4002 -1.682666,-0.6409 l 0,15.3699 0,5.3102 -10.62041,0 0,-0.7992 z"
           id="path4288"
           inkscape:connector-curvature="0" />
        <circle
           style="opacity:1;fill:#e6e6e6;fill-opacity:1;stroke:#333333;stroke-width:0;stroke-linecap:square;stroke-linejoin:round;stroke-miterlimit:4;stroke-dasharray:none;stroke-opacity:1"
           id="circle4290"
           cx="-32.265331"
           cy="781.66589"
           r="7.1422362" />
        <circle
           r="7.1422362"
           cy="781.66589"
           cx="1.0088086"
           id="circle4292"
           style="opacity:1;fill:#e6e6e6;fill-opacity:1;stroke:#333333;stroke-width:0;stroke-linecap:square;stroke-linejoin:round;stroke-miterlimit:4;stroke-dasharray:none;stroke-opacity:1" />
      </g>
    </g>
    <g
       id="g4173"
       transform="translate(118.70973,15.742001)">
      <circle
         r="52.88266"
         cy="981.47687"
         cx="-63.571712"
         id="path4171"
         style="opacity:1;fill:#ffffff;fill-opacity:1;stroke:none;stroke-width:3;stroke-linecap:round;stroke-linejoin:round;stroke-miterlimit:4;stroke-dasharray:none;stroke-opacity:1" />
      <g
         transform="translate(82.136897,25.878749)"
         id="g4155">
        <path
           inkscape:connector-curvature="0"
           id="path4169"
           d="m -149.31617,1009.1579 c -3.18122,-0.2559 -6.04876,-0.676 -8.65885,-1.2685 -14.73666,-3.3455 -27.46887,-12.775 -34.9754,-25.90293 -7.35025,-12.85461 -8.96029,-28.42062 -4.39851,-42.52513 3.9865,-12.32583 12.31299,-22.76924 23.54487,-29.53091 6.84991,-4.12369 14.43541,-6.60814 22.88848,-7.49656 2.10095,-0.22081 8.53926,-0.18757 10.68147,0.0552 12.50361,1.41672 23.40853,6.5069 32.22967,15.04411 10.40555,10.07063 16.211147,23.75026 16.211147,38.19801 0,14.43465 -5.774292,28.0578 -16.177887,38.16808 -8.74774,8.50113 -19.80901,13.68523 -32.13463,15.06053 -1.5275,0.1704 -7.86103,0.3067 -9.21036,0.1982 z m -21.785,-37.46431 c 0.0468,-11.30024 0.0787,-13.33781 0.2106,-13.41929 0.19777,-0.12221 0.27753,-0.0894 1.35117,0.55588 2.14468,1.28899 4.94301,1.97361 7.45493,1.82387 6.43011,-0.38331 11.57085,-5.05566 12.89544,-11.72049 0.26752,-1.34603 0.26752,-4.14136 0,-5.48739 -0.59183,-2.97789 -1.83667,-5.41971 -3.82125,-7.49562 -1.99311,-2.08483 -4.33571,-3.39153 -7.17082,-3.99987 -1.29493,-0.27787 -3.88934,-0.27787 -5.18427,0 -1.95467,0.41942 -4.14105,1.37684 -5.00569,2.192 -0.24336,0.22942 -0.50657,0.39254 -0.58492,0.36247 -0.11211,-0.043 -0.14863,-0.91939 -0.1714,-4.11232 l -0.0289,-4.05765 -3.41942,0 -3.41942,0 -0.0283,29.23051 c -0.0155,16.07678 -0.004,29.29327 0.0247,29.36998 0.0415,0.10915 0.79115,0.13314 3.44767,0.11031 l 3.39469,-0.0292 0.0551,-13.32321 z m 6.40222,-18.99911 c -1.76405,-0.31918 -3.64741,-1.62293 -4.55817,-3.15538 -1.93025,-3.24784 -0.66369,-7.30451 2.81947,-9.03048 0.69143,-0.34262 1.20005,-0.50441 1.99304,-0.63401 0.96963,-0.15846 1.15977,-0.15846 2.12941,0 5.51519,0.90131 7.63471,7.3101 3.65836,11.06177 -0.93872,0.88567 -2.22865,1.54357 -3.45469,1.76199 -1.06924,0.19048 -1.51692,0.18981 -2.58742,-0.004 z m 39.78569,28.63505 c 2.87916,-0.59164 5.42799,-1.96448 7.48023,-4.029 1.66814,-1.67812 2.99788,-3.92599 3.58206,-6.05534 0.21501,-0.78372 0.21815,-1.16087 0.19076,-22.90858 l -0.0278,-22.11173 -3.41942,0 -3.41942,0 -0.0291,3.68569 c -0.0197,2.49553 -0.0686,3.73328 -0.15139,3.83306 -0.2075,0.25002 -0.5316,0.16914 -1.79729,-0.44851 -1.82932,-0.89272 -2.12586,-1.01251 -3.20651,-1.29528 -0.87488,-0.22893 -1.235,-0.25919 -3.03336,-0.25492 -1.54312,0.004 -2.2692,0.0539 -2.9782,0.20589 -2.7939,0.59909 -5.15396,1.90273 -7.09484,3.91902 -2.05161,2.13131 -3.29586,4.54816 -3.89538,7.56644 -0.13893,0.69949 -0.19639,1.50503 -0.19639,2.7536 0,1.94658 0.16172,3.02098 0.71441,4.74637 1.31888,4.11728 4.64332,7.58372 8.59703,8.96426 1.61026,0.56226 2.63555,0.72974 4.46731,0.72974 1.18506,0 1.9206,-0.0571 2.59214,-0.20118 1.74399,-0.37422 3.81009,-1.21793 4.38131,-1.78915 0.15038,-0.15038 0.35534,-0.25765 0.45546,-0.23838 0.16554,0.0319 0.18465,0.49417 0.21075,5.09815 l 0.0287,5.0631 -0.27353,0.89181 c -0.78309,2.55314 -2.84738,4.34641 -5.50285,4.78038 -0.96963,0.15846 -1.15977,0.15846 -2.12941,0 -3.20472,-0.52373 -5.55985,-3.07399 -5.72189,-6.19599 -0.0249,-0.4804 -0.0873,-0.91542 -0.13859,-0.96671 -0.0513,-0.0513 -1.70326,-0.0801 -3.67105,-0.0641 l -3.5778,0.0291 -0.0359,0.44122 c -0.0555,0.68068 0.18277,2.46308 0.47529,3.55615 0.61671,2.30442 1.90471,4.5237 3.63654,6.26588 2.38946,2.40375 5.37032,3.82308 8.99511,4.283 0.88982,0.1129 3.39747,-0.0289 4.49308,-0.254 z m -5.26061,-28.63505 c -1.76405,-0.31918 -3.64741,-1.62293 -4.55817,-3.15538 -1.93025,-3.24784 -0.66369,-7.30451 2.81947,-9.03048 0.69143,-0.34262 1.20005,-0.50441 1.99304,-0.63401 0.96964,-0.15846 1.15978,-0.15846 2.12941,0 5.5152,0.90131 7.63472,7.3101 3.65836,11.06177 -0.93871,0.88567 -2.22865,1.54357 -3.45469,1.76199 -1.06924,0.19048 -1.51691,0.18981 -2.58742,-0.004 z"
           style="fill:#a8a7a5" />
        <path
           inkscape:connector-curvature="0"
           id="path4167"
           d="m -148.93011,1009.0532 c -2.57762,-0.2165 -3.45602,-0.308 -4.74306,-0.4939 -14.14529,-2.0432 -26.88592,-9.58976 -35.46285,-21.00551 -5.85495,-7.79285 -9.26354,-16.46926 -10.38894,-26.44459 -0.26707,-2.36731 -0.26707,-8.3888 0,-10.75611 1.1252,-9.97362 4.52502,-18.62945 10.38685,-26.44459 8.54386,-11.39089 21.34107,-18.97032 35.46494,-21.00491 2.90991,-0.41918 4.20252,-0.50204 7.83156,-0.50204 5.22077,0 8.51296,0.39483 13.34676,1.60066 19.46893,4.85667 34.868318,20.49768 39.255364,39.87128 0.960636,4.24222 1.271097,7.13841 1.271097,11.85765 0,4.71925 -0.310461,7.61544 -1.271097,11.85766 -3.833585,16.92947 -16.186254,31.24723 -32.526834,37.7013 -4.72061,1.8645 -9.21589,2.965 -14.5601,3.5644 -1.39917,0.1569 -7.44038,0.2965 -8.60369,0.1987 z m -22.06076,-37.27631 c 0,-12.34197 0.0133,-13.30016 0.18506,-13.36609 0.10629,-0.0408 0.35277,0.0316 0.57909,0.16998 0.81861,0.50065 2.40683,1.27188 3.11898,1.51455 1.46981,0.50084 2.46254,0.64963 4.3345,0.64963 2.47908,0 3.97395,-0.34577 6.06671,-1.40324 1.41268,-0.71382 2.49594,-1.5095 3.65656,-2.68582 2.84855,-2.88708 4.37148,-6.88383 4.19814,-11.01755 -0.16331,-3.89474 -1.59521,-7.27638 -4.19814,-9.91452 -1.14922,-1.16476 -2.24615,-1.97385 -3.60141,-2.65637 -2.15954,-1.08756 -3.63425,-1.43268 -6.12186,-1.43268 -1.90674,0 -2.95562,0.16207 -4.41215,0.68178 -1.10456,0.39413 -2.81935,1.29339 -3.22776,1.69269 -0.19188,0.18759 -0.40036,0.30925 -0.46329,0.27035 -0.0756,-0.0467 -0.11443,-1.41595 -0.11443,-4.03514 l 0,-3.96443 -3.58487,0 -3.58487,0 0,29.39596 0,29.39596 3.58487,0 3.58487,0 0,-13.29506 z m 6.64084,-19.14876 c -3.23973,-0.47323 -5.68057,-3.19225 -5.68057,-6.32796 0,-4.45757 4.73161,-7.57538 9.03707,-5.95481 3.81487,1.43591 5.41663,5.77046 3.37762,9.14028 -1.35073,2.23233 -4.11955,3.5244 -6.73412,3.14249 z m 39.32573,28.86349 c 2.95565,-0.57822 5.44306,-1.91135 7.59658,-4.0714 1.79467,-1.80012 2.84729,-3.49217 3.56084,-5.72392 l 0.34428,-1.07678 0,-22.2249 0,-22.22489 -3.58487,0 -3.58487,0 0,3.68167 c 0,4.14615 0.0169,4.05927 -0.74028,3.81364 -0.22985,-0.0746 -0.542,-0.22021 -0.69367,-0.32364 -0.46093,-0.31434 -2.53756,-1.18454 -3.47457,-1.45599 -0.79286,-0.2297 -1.10636,-0.25549 -3.08851,-0.25416 -1.73128,10e-4 -2.40786,0.0454 -3.14365,0.20565 -5.49478,1.19648 -9.70944,5.52659 -10.93901,11.23869 -0.34907,1.62159 -0.34907,4.60696 0,6.22856 1.23288,5.72747 5.44007,10.04231 10.9615,11.24198 1.27352,0.27671 4.08638,0.27671 5.3599,0 1.69341,-0.36794 3.90231,-1.2908 4.42027,-1.84676 0.11994,-0.12875 0.27152,-0.20107 0.33683,-0.1607 0.0819,0.0506 0.11876,1.60015 0.11876,4.99729 l 0,4.92389 -0.2863,0.94327 c -0.63703,2.09883 -2.04495,3.6042 -4.09125,4.37442 -4.22842,1.59158 -8.94487,-1.48899 -9.01073,-5.88539 l -0.0136,-0.90999 -3.84991,-10e-6 -3.84991,-2e-5 0.0679,1.18657 c 0.15098,2.63881 0.94856,5.00146 2.42909,7.19564 0.65746,0.97439 2.27898,2.68364 3.20936,3.38302 2.00812,1.50953 4.57706,2.56316 7.06745,2.89866 1.07333,0.1446 3.78943,0.0586 4.87841,-0.1544 z m -4.80065,-28.86349 c -3.23972,-0.47323 -5.68057,-3.19225 -5.68057,-6.32796 0,-4.45757 4.73162,-7.57538 9.03707,-5.95481 3.81488,1.43591 5.41663,5.77046 3.37763,9.14028 -1.35073,2.23233 -4.11956,3.5244 -6.73413,3.14249 z"
           style="fill:#cccccc;fill-opacity:1" />
        <path
           inkscape:connector-curvature="0"
           id="path4165"
           d="m -148.93011,1009.0532 c -2.57762,-0.2165 -3.45602,-0.308 -4.74306,-0.4939 -14.14529,-2.0432 -26.88592,-9.58976 -35.46285,-21.00551 -5.85495,-7.79285 -9.26354,-16.46926 -10.38894,-26.44459 -0.26707,-2.36731 -0.26707,-8.3888 0,-10.75611 1.1252,-9.97362 4.52502,-18.62945 10.38685,-26.44459 8.54386,-11.39089 21.34107,-18.97032 35.46494,-21.00491 2.90991,-0.41918 4.20252,-0.50204 7.83156,-0.50204 5.22077,0 8.51296,0.39483 13.34676,1.60066 19.46893,4.85667 34.868318,20.49768 39.255364,39.87128 0.960636,4.24222 1.271097,7.13841 1.271097,11.85765 0,4.71925 -0.310461,7.61544 -1.271097,11.85766 -3.833585,16.92947 -16.186254,31.24723 -32.526834,37.7013 -4.72061,1.8645 -9.21589,2.965 -14.5601,3.5644 -1.39917,0.1569 -7.44038,0.2965 -8.60369,0.1987 z m 8.21763,-1.6968 c 3.41056,-0.3765 6.62455,-0.996 9.52586,-1.8363 12.8016,-3.7077 23.61894,-12.02217 30.45434,-23.40795 5.864567,-9.76864 8.325985,-21.46929 6.89551,-32.77863 -2.175764,-17.20155 -12.84249,-32.14478 -28.51013,-39.94038 -5.75503,-2.86347 -11.6473,-4.55896 -18.36558,-5.28466 -1.84058,-0.19882 -6.54061,-0.26341 -8.60369,-0.11823 -16.26011,1.14416 -30.6506,9.30424 -39.89216,22.62069 -1.8214,2.62451 -3.78238,6.24231 -5.10314,9.41474 -7.3493,17.65282 -4.21216,38.10817 8.08872,52.74145 9.18839,10.93063 22.04518,17.52087 36.46536,18.69177 1.5483,0.1257 7.59871,0.057 9.04491,-0.1025 z m -41.14745,-22.31202 c -0.0288,-0.0758 -0.0396,-13.34125 -0.0241,-29.47869 l 0.0282,-29.34081 1.84759,-0.0302 1.84759,-0.0303 0,29.50894 0,29.50893 -1.82348,0 c -1.35731,0 -1.83686,-0.0353 -1.87584,-0.13788 z m 10.86906,-13.20968 c 0,-12.39608 0.0133,-13.35797 0.18506,-13.4239 0.10629,-0.0408 0.35277,0.0316 0.57909,0.16998 1.55471,0.95085 3.17541,1.61812 4.77354,1.96535 1.27351,0.27671 4.08638,0.27671 5.35989,0 2.73416,-0.59406 5.05699,-1.87703 7.04332,-3.89023 2.84855,-2.88708 4.37148,-6.88383 4.19814,-11.01755 -0.16331,-3.89474 -1.59521,-7.27638 -4.19814,-9.91452 -1.14922,-1.16476 -2.24615,-1.97385 -3.60141,-2.65637 -2.15954,-1.08756 -3.63425,-1.43268 -6.12186,-1.43268 -1.90674,0 -2.95562,0.16207 -4.41215,0.68178 -1.10456,0.39413 -2.81935,1.29339 -3.22776,1.69269 -0.19188,0.18759 -0.40036,0.30925 -0.46329,0.27035 -0.0756,-0.0467 -0.11443,-1.43384 -0.11443,-4.09296 l 0,-4.02225 1.84759,0.0303 1.84759,0.0302 0.0313,1.25396 0.0313,1.25396 0.35475,-0.0748 c 2.37472,-0.50045 5.08446,-0.59284 7.02813,-0.23963 3.21707,0.58461 6.31503,2.16518 8.71322,4.44547 2.27748,2.1655 3.95836,4.81709 4.80693,7.58294 0.17764,0.57899 0.3478,1.05271 0.37813,1.05271 0.0303,0 0.19935,-0.47004 0.37559,-1.04453 0.83804,-2.7318 2.52953,-5.41282 4.75643,-7.53897 4.10698,-3.92117 9.66808,-5.5153 15.23747,-4.36793 0.47519,0.0979 0.91363,0.18605 0.97429,0.19588 0.0659,0.0107 0.13252,-0.51513 0.16546,-1.30576 l 0.0552,-1.32364 1.84759,-0.0303 1.84759,-0.0302 0,3.73949 c 0,4.21 0.0177,4.11737 -0.74028,3.87146 -0.22985,-0.0746 -0.542,-0.22021 -0.69367,-0.32364 -0.46093,-0.31434 -2.53756,-1.18454 -3.47457,-1.45599 -0.79286,-0.2297 -1.10636,-0.25549 -3.08851,-0.25416 -1.73128,10e-4 -2.40786,0.0454 -3.14365,0.20565 -5.49478,1.19648 -9.70944,5.52659 -10.93901,11.23869 -0.34907,1.62159 -0.34907,4.60696 0,6.22856 1.23288,5.72747 5.44007,10.04231 10.9615,11.24198 1.27352,0.27671 4.08638,0.27671 5.3599,0 1.69341,-0.36794 3.90231,-1.2908 4.42027,-1.84676 0.11994,-0.12875 0.27152,-0.20107 0.33683,-0.1607 0.0819,0.0506 0.11876,1.60015 0.11876,4.99729 l 0,4.92389 -0.2863,0.94327 c -0.63703,2.09883 -2.04495,3.6042 -4.09125,4.37442 -3.41657,1.286 -7.36939,-0.476 -8.6193,-3.84213 -0.31025,-0.83554 -0.48661,-1.98495 -0.39663,-2.58501 l 0.0726,-0.48418 1.66919,0.0304 1.66918,0.0304 -0.0337,0.52976 c -0.0796,1.25154 0.6387,2.43732 1.82944,3.01989 1.58348,0.77473 3.68905,0.09 4.42999,-1.44056 0.20724,-0.42809 0.22706,-0.67242 0.22706,-2.79923 0,-1.28161 -0.0428,-2.35665 -0.0951,-2.38898 -0.0523,-0.0323 -0.53627,0.0229 -1.07546,0.12273 -1.35917,0.25166 -4.3693,0.24683 -5.77856,-0.009 -3.24587,-0.58985 -6.33138,-2.1729 -8.76626,-4.49762 -2.2269,-2.12615 -3.91839,-4.80717 -4.75643,-7.53898 -0.17624,-0.57449 -0.34526,-1.04453 -0.37559,-1.04453 -0.0303,0 -0.20049,0.47372 -0.37813,1.05272 -1.34596,4.38702 -4.75851,8.39796 -8.92574,10.49087 -1.24202,0.62378 -3.23345,1.29022 -4.59441,1.53754 -1.94483,0.35342 -4.65205,0.26091 -7.03131,-0.24027 l -0.35794,-0.0754 -0.0281,10.74072 -0.0281,10.74072 -1.84759,0.0302 -1.84759,0.0302 0,-13.35289 z m 41.52938,13.2734 c -4.80604,-0.40384 -9.42588,-2.78646 -12.45444,-6.42322 -1.8425,-2.21251 -3.21677,-5.008 -3.74677,-7.62151 -0.21594,-1.06485 -0.42875,-3.12739 -0.38126,-3.69517 l 0.0369,-0.44122 1.66511,-0.0304 1.66511,-0.0303 0.0673,1.2437 c 0.1985,3.67051 1.5376,6.63693 4.20282,9.31025 2.16589,2.17246 4.61797,3.48174 7.65667,4.08824 1.32422,0.26431 4.34148,0.26431 5.6657,0 3.0387,-0.6065 5.49078,-1.91578 7.65667,-4.08824 1.79467,-1.80012 2.84729,-3.49217 3.56084,-5.72392 l 0.34428,-1.07678 0,-22.28272 0,-22.28271 1.84759,0.0302 1.84759,0.0303 0.0349,20.79226 c 0.0245,14.62501 -0.002,21.28303 -0.0889,22.44682 -0.30721,4.1077 -0.60059,4.87908 -3.11524,8.19096 -1.15814,1.5253 -2.94977,3.30255 -4.27723,4.2429 -3.46836,2.4569 -7.94639,3.67696 -12.18765,3.32058 z m -34.88854,-32.47997 c -3.23973,-0.47323 -5.68057,-3.19225 -5.68057,-6.32796 0,-4.45757 4.73161,-7.57538 9.03707,-5.95481 3.81487,1.43591 5.41663,5.77046 3.37762,9.14028 -1.35073,2.23233 -4.11955,3.5244 -6.73412,3.14249 z m 2.48288,-3.68776 c 0.98882,-0.48318 1.79636,-1.67006 1.79636,-2.6402 0,-0.53324 -0.35,-1.36942 -0.77554,-1.85286 -1.33619,-1.51799 -3.73097,-1.51799 -5.06715,0 -0.42555,0.48344 -0.77554,1.31962 -0.77554,1.85286 0,0.49761 0.34213,1.35219 0.71639,1.78943 1.02961,1.20288 2.68349,1.5456 4.10548,0.85077 z m 32.0422,3.68776 c -3.23972,-0.47323 -5.68057,-3.19225 -5.68057,-6.32796 0,-4.45757 4.73162,-7.57538 9.03707,-5.95481 3.81488,1.43591 5.41663,5.77046 3.37763,9.14028 -1.35073,2.23233 -4.11956,3.5244 -6.73413,3.14249 z m 2.48288,-3.68776 c 0.98882,-0.48318 1.79636,-1.67006 1.79636,-2.6402 0,-0.53324 -0.34999,-1.36942 -0.77554,-1.85286 -1.33618,-1.51799 -3.73096,-1.51799 -5.06715,0 -0.42554,0.48344 -0.77554,1.31962 -0.77554,1.85286 0,0.49761 0.34213,1.35219 0.71639,1.78943 1.02962,1.20288 2.68349,1.5456 4.10548,0.85077 z"
           style="fill:#646361" />
        <path
           inkscape:connector-curvature="0"
           id="path4163"
           d="m -149.81254,1008.8823 c -11.41408,-0.8499 -22.11585,-5.1993 -30.94021,-12.57458 -1.53859,-1.28593 -4.5997,-4.30591 -5.90481,-5.82547 -4.74452,-5.52412 -8.16158,-11.53045 -10.38867,-18.26069 -1.10777,-3.34767 -1.92261,-7.16859 -2.36863,-11.10688 -0.26932,-2.37802 -0.26932,-8.38905 0,-10.76707 0.58056,-5.12627 1.70994,-9.71669 3.50606,-14.25054 0.71886,-1.81458 2.68728,-5.79311 3.68374,-7.44551 3.62069,-6.00404 8.34249,-11.24016 13.89899,-15.41291 16.16287,-12.13781 38.0465,-14.20831 56.25493,-5.32252 5.31698,2.5947 9.76424,5.73577 14.03534,9.91307 4.56245,4.46226 7.81549,8.95535 10.65754,14.72026 2.737718,5.55324 4.365085,11.22146 5.109911,17.79815 0.269318,2.37802 0.269318,8.38905 0,10.76707 -0.744826,6.57669 -2.372193,12.24491 -5.109911,17.79815 -2.186772,4.43571 -4.41271,7.80323 -7.64738,11.56942 -1.30512,1.51956 -4.36623,4.53954 -5.90482,5.82547 -8.92065,7.45578 -19.54247,11.73878 -31.21597,12.58708 -1.79518,0.1304 -5.83527,0.1239 -7.66611,-0.013 z m 9.10006,-1.5259 c 3.41056,-0.3765 6.62455,-0.996 9.52586,-1.8363 12.8016,-3.7077 23.61894,-12.02217 30.45434,-23.40795 5.864567,-9.76864 8.325985,-21.46929 6.89551,-32.77863 -2.175764,-17.20155 -12.84249,-32.14478 -28.51013,-39.94038 -5.75503,-2.86347 -11.6473,-4.55896 -18.36558,-5.28466 -1.84058,-0.19882 -6.54061,-0.26341 -8.60369,-0.11823 -16.26011,1.14416 -30.6506,9.30424 -39.89216,22.62069 -1.8214,2.62451 -3.78238,6.24231 -5.10314,9.41474 -7.3493,17.65282 -4.21216,38.10817 8.08872,52.74145 9.18839,10.93063 22.04518,17.52087 36.46536,18.69177 1.5483,0.1257 7.59871,0.057 9.04491,-0.1025 z m -41.14745,-22.31202 c -0.0288,-0.0758 -0.0396,-13.34125 -0.0241,-29.47869 l 0.0282,-29.34081 1.82001,-0.0301 1.82002,-0.0301 0,29.50881 0,29.50881 -1.7959,0 c -1.33526,0 -1.80933,-0.0354 -1.84827,-0.13788 z m 10.95312,-13.11941 c 0.0196,-8.97663 0.0659,-13.29938 0.14334,-13.37683 0.0791,-0.0791 0.24066,-0.0374 0.52262,0.13474 0.83552,0.51009 2.41712,1.27878 3.13311,1.52275 1.45806,0.49684 2.46147,0.64651 4.3345,0.64651 2.54507,0 4.02562,-0.35293 6.22938,-1.48492 3.8086,-1.95635 6.57354,-5.65515 7.52238,-10.06307 0.34906,-1.6216 0.34906,-4.60697 0,-6.22856 -1.23806,-5.75152 -5.53112,-10.16002 -11.04931,-11.34641 -1.30561,-0.28071 -4.09928,-0.28071 -5.40489,0 -1.65466,0.35575 -3.60564,1.17854 -4.78144,2.01648 -0.29411,0.20961 -0.55286,0.36298 -0.575,0.34085 -0.0221,-0.0221 -0.0545,-1.81365 -0.0719,-3.98112 l -0.0317,-3.94087 1.82002,0.0302 1.82001,0.0302 0.0313,1.25396 0.0313,1.25396 0.35475,-0.0748 c 2.37472,-0.50045 5.08446,-0.59284 7.02813,-0.23963 3.21707,0.58461 6.31503,2.16518 8.71322,4.44547 2.27748,2.1655 3.95836,4.81709 4.80693,7.58294 0.17764,0.57899 0.3478,1.05271 0.37813,1.05271 0.0303,0 0.19935,-0.47004 0.37559,-1.04453 0.83804,-2.7318 2.52953,-5.41282 4.75643,-7.53897 4.10698,-3.92117 9.66808,-5.5153 15.23747,-4.36793 0.47519,0.0979 0.91363,0.18605 0.97429,0.19588 0.0659,0.0107 0.13252,-0.51513 0.16546,-1.30576 l 0.0552,-1.32364 1.86044,-0.0303 c 1.67072,-0.0272 1.8535,-0.0122 1.79243,0.14691 -0.0374,0.0975 -0.068,1.78789 -0.068,3.75651 0,3.06353 -0.0236,3.58837 -0.16377,3.64216 -0.0901,0.0346 -0.67331,-0.18428 -1.29607,-0.48631 -3.07777,-1.49272 -3.60244,-1.62503 -6.42688,-1.62069 -1.71494,0.003 -2.4148,0.0484 -3.14365,0.20565 -5.5226,1.19133 -9.81125,5.59555 -11.04932,11.34709 -0.34906,1.62159 -0.34906,4.60696 0,6.22856 0.94885,4.40792 3.71379,8.10672 7.52238,10.06307 2.20376,1.13199 3.68431,1.48492 6.22938,1.48492 1.87303,0 2.87644,-0.14967 4.3345,-0.64651 0.8283,-0.28225 2.72532,-1.20812 2.83331,-1.38284 0.24109,-0.39011 0.27769,0.24057 0.27769,4.78513 l 0,4.89857 -0.32565,0.99655 c -0.17912,0.5481 -0.45766,1.21027 -0.619,1.47147 -0.42589,0.68955 -1.44436,1.69998 -2.14491,2.128 -1.65751,1.01269 -3.80479,1.27157 -5.56822,0.67131 -0.48476,-0.165 -1.15485,-0.4671 -1.48911,-0.67131 -0.6975,-0.42616 -1.71868,-1.43782 -2.13975,-2.11982 -0.49641,-0.80403 -0.85312,-2.05657 -0.89393,-3.13899 l -0.0369,-0.97751 1.67262,0.0304 1.67262,0.0304 -0.0337,0.52976 c -0.0796,1.25154 0.6387,2.43732 1.82944,3.01989 1.58348,0.77473 3.68905,0.09 4.42999,-1.44056 0.20724,-0.42809 0.22706,-0.67242 0.22706,-2.79923 0,-1.28161 -0.0428,-2.35665 -0.0951,-2.38898 -0.0523,-0.0323 -0.53627,0.0229 -1.07546,0.12273 -1.35917,0.25166 -4.3693,0.24683 -5.77856,-0.009 -3.24587,-0.58985 -6.33138,-2.1729 -8.76626,-4.49762 -2.2269,-2.12615 -3.91839,-4.80717 -4.75643,-7.53898 -0.17624,-0.57449 -0.34526,-1.04453 -0.37559,-1.04453 -0.0303,0 -0.20049,0.47372 -0.37813,1.05272 -1.34596,4.38702 -4.75851,8.39796 -8.92574,10.49087 -1.24202,0.62378 -3.23345,1.29022 -4.59441,1.53754 -1.94483,0.35342 -4.65205,0.26091 -7.03131,-0.24027 l -0.35794,-0.0754 -0.0281,10.74072 -0.0281,10.74072 -1.82001,0.0301 -1.82002,0.0301 0.0289,-13.26239 z m 25.0652,-30.0921 c 0,-0.0607 -0.0496,-0.11031 -0.1103,-0.11031 -0.0607,0 -0.1103,0.0496 -0.1103,0.11031 0,0.0607 0.0496,0.1103 0.1103,0.1103 0.0607,0 0.1103,-0.0496 0.1103,-0.1103 z m 16.38012,43.27523 c -4.80604,-0.40384 -9.42588,-2.78646 -12.45444,-6.42322 -1.8425,-2.21251 -3.21677,-5.008 -3.74677,-7.62151 -0.21594,-1.06485 -0.42875,-3.12739 -0.38126,-3.69517 l 0.0369,-0.44122 1.65456,-0.0294 1.65455,-0.0294 0.013,1.18761 c 0.0616,5.60767 4.16435,11.05263 9.78042,12.98012 1.75719,0.60308 2.82941,0.76825 4.98724,0.76825 2.15783,0 3.23005,-0.16517 4.98724,-0.76825 4.29561,-1.47429 7.81051,-5.05289 9.17577,-9.34206 l 0.34353,-1.07927 -0.0284,-22.2801 -0.0284,-22.28011 1.82002,0.0301 1.82001,0.0301 0.0349,20.79226 c 0.0245,14.62501 -0.002,21.28303 -0.0889,22.44682 -0.30721,4.1077 -0.60059,4.87908 -3.11524,8.19096 -1.15814,1.5253 -2.94977,3.30255 -4.27723,4.2429 -3.46836,2.4569 -7.94639,3.67696 -12.18765,3.32058 z m -34.91918,-32.57766 c -3.9223,-0.60995 -6.46088,-4.5186 -5.24773,-8.0799 0.36452,-1.07008 0.69932,-1.61631 1.49018,-2.43128 0.77279,-0.79634 1.57892,-1.29551 2.71875,-1.6835 0.73877,-0.25147 1.06876,-0.30001 2.03956,-0.30001 0.9708,0 1.3008,0.0485 2.03956,0.30001 1.13984,0.38799 1.94597,0.88716 2.71876,1.6835 0.79086,0.81497 1.12565,1.3612 1.49018,2.43128 0.5449,1.59961 0.31744,3.56922 -0.58008,5.02291 -0.42107,0.682 -1.44225,1.69366 -2.13975,2.11982 -1.26655,0.77382 -3.11733,1.15676 -4.52943,0.93717 z m 2.51352,-3.59007 c 0.98882,-0.48318 1.79636,-1.67006 1.79636,-2.6402 0,-0.53324 -0.35,-1.36942 -0.77554,-1.85286 -1.33619,-1.51799 -3.73097,-1.51799 -5.06715,0 -0.42555,0.48344 -0.77554,1.31962 -0.77554,1.85286 0,0.49761 0.34213,1.35219 0.71639,1.78943 1.02961,1.20288 2.68349,1.5456 4.10548,0.85077 z m 32.01156,3.59007 c -3.92229,-0.60995 -6.46088,-4.5186 -5.24773,-8.0799 0.36453,-1.07008 0.69932,-1.61631 1.49018,-2.43128 0.77279,-0.79634 1.57892,-1.29551 2.71876,-1.6835 0.73877,-0.25147 1.06876,-0.30001 2.03956,-0.30001 0.9708,0 1.30079,0.0485 2.03956,0.30001 1.13983,0.38799 1.94596,0.88716 2.71875,1.6835 0.79086,0.81497 1.12566,1.3612 1.49018,2.43128 0.54491,1.59961 0.31744,3.56922 -0.58008,5.02291 -0.42107,0.682 -1.44224,1.69366 -2.13975,2.11982 -1.26655,0.77382 -3.11733,1.15676 -4.52943,0.93717 z m 2.51352,-3.59007 c 0.98882,-0.48318 1.79636,-1.67006 1.79636,-2.6402 0,-0.53324 -0.34999,-1.36942 -0.77554,-1.85286 -1.33618,-1.51799 -3.73096,-1.51799 -5.06715,0 -0.42554,0.48344 -0.77554,1.31962 -0.77554,1.85286 0,0.49761 0.34213,1.35219 0.71639,1.78943 1.02962,1.20288 2.68349,1.5456 4.10548,0.85077 z"
           style="fill:#a8680c" />
        <path
           inkscape:connector-curvature="0"
           id="path4161"
           d="m -149.81254,1008.8823 c -11.41408,-0.8499 -22.11585,-5.1993 -30.94021,-12.57458 -1.53859,-1.28593 -4.5997,-4.30591 -5.90481,-5.82547 -4.74452,-5.52412 -8.16158,-11.53045 -10.38867,-18.26069 -1.10777,-3.34767 -1.92261,-7.16859 -2.36863,-11.10688 -0.26932,-2.37802 -0.26932,-8.38905 0,-10.76707 0.58056,-5.12627 1.70994,-9.71669 3.50606,-14.25054 0.71886,-1.81458 2.68728,-5.79311 3.68374,-7.44551 3.62069,-6.00404 8.34249,-11.24016 13.89899,-15.41291 16.16287,-12.13781 38.0465,-14.20831 56.25493,-5.32252 5.31698,2.5947 9.76424,5.73577 14.03534,9.91307 4.56245,4.46226 7.81549,8.95535 10.65754,14.72026 2.737718,5.55324 4.365085,11.22146 5.109911,17.79815 0.269318,2.37802 0.269318,8.38905 0,10.76707 -0.744826,6.57669 -2.372193,12.24491 -5.109911,17.79815 -2.186772,4.43571 -4.41271,7.80323 -7.64738,11.56942 -1.30512,1.51956 -4.36623,4.53954 -5.90482,5.82547 -8.92065,7.45578 -19.54247,11.73878 -31.21597,12.58708 -1.79518,0.1304 -5.83527,0.1239 -7.66611,-0.013 z m 7.72679,-1.3117 c 5.59814,-0.4289 10.64406,-1.5827 15.76791,-3.6055 6.48852,-2.5615 12.20769,-6.26531 17.25099,-11.17188 8.77749,-8.53953 14.004087,-19.21561 15.471138,-31.60204 0.278738,-2.35337 0.278738,-8.5667 0,-10.92007 -0.928769,-7.84171 -3.277445,-14.77429 -7.203968,-21.26404 -5.16465,-8.53611 -13.02241,-15.66426 -22.04359,-19.99677 -11.21011,-5.38378 -23.9469,-6.67069 -35.95903,-3.63327 -9.07972,2.29592 -17.13016,6.78935 -23.81406,13.29204 -8.7865,8.54829 -14.07706,19.37701 -15.47524,31.67474 -0.27128,2.38607 -0.27128,8.3886 0,10.77467 0.88126,7.75113 3.27446,14.83529 7.20807,21.33674 5.16464,8.53611 13.02241,15.66426 22.04359,19.99678 5.93301,2.8494 12.40414,4.5873 19.0274,5.1101 1.7026,0.1344 6.02124,0.1391 7.72679,0.01 z m -39.66388,-22.63652 c -0.0288,-0.0758 -0.0396,-13.29161 -0.0241,-29.36839 l 0.0283,-29.23051 1.73729,-0.0304 1.73728,-0.0304 0,29.39876 0,29.39876 -1.71317,0 c -1.26907,0 -1.72674,-0.0357 -1.76554,-0.13787 z m 10.86907,-13.09924 c 0,-14.74133 -0.0639,-13.63668 0.75727,-13.09326 0.66456,0.43978 2.20699,1.18867 3.01555,1.46412 1.45838,0.49682 2.46159,0.64644 4.3345,0.64644 2.54507,0 4.02562,-0.35293 6.22938,-1.48492 3.8086,-1.95635 6.57354,-5.65515 7.52238,-10.06307 0.34906,-1.6216 0.34906,-4.60697 0,-6.22856 -1.23806,-5.75152 -5.53112,-10.16002 -11.04931,-11.34641 -1.30561,-0.28071 -4.09928,-0.28071 -5.40489,0 -1.64861,0.35444 -3.60527,1.17835 -4.77089,2.00891 -0.28831,0.20543 -0.5489,0.37351 -0.5791,0.37351 -0.0302,0 -0.0549,-1.76336 -0.0549,-3.91858 l 0,-3.91859 1.73728,0.0304 1.73729,0.0304 0.0313,1.25494 0.0313,1.25494 0.40989,-0.0641 c 0.22544,-0.0353 0.83181,-0.147 1.34748,-0.24834 1.32535,-0.26047 4.21839,-0.25995 5.68064,9.9e-4 5.40067,0.96382 10.06614,4.5439 12.52473,9.61092 0.5247,1.08139 1.3184,3.26041 1.3184,3.61954 0,0.0985 0.0496,0.17906 0.1103,0.17906 0.0607,0 0.1103,-0.0806 0.1103,-0.17906 0,-0.0985 0.17547,-0.70343 0.38993,-1.34434 1.71617,-5.12871 5.475,-9.13486 10.33025,-11.00996 2.94108,-1.13584 6.47016,-1.41277 9.48826,-0.74455 1.35649,0.30033 1.2375,0.40248 1.3008,-1.11673 l 0.0551,-1.32365 1.73729,-0.0304 1.73728,-0.0304 0,3.70144 c 0,3.17153 -0.0234,3.71044 -0.16377,3.76428 -0.0901,0.0346 -0.67331,-0.18427 -1.29607,-0.48631 -3.07777,-1.4927 -3.60244,-1.62501 -6.42688,-1.62067 -1.71494,0.003 -2.4148,0.0484 -3.14365,0.20565 -5.5226,1.19133 -9.81125,5.59555 -11.04932,11.34709 -0.34906,1.62159 -0.34906,4.60696 0,6.22856 0.94885,4.40792 3.71379,8.10672 7.52238,10.06307 2.20376,1.13199 3.68431,1.48492 6.22938,1.48492 1.87303,0 2.87644,-0.14967 4.3345,-0.64651 0.8283,-0.28225 2.72532,-1.20812 2.83331,-1.38284 0.24109,-0.39011 0.27769,0.24057 0.27769,4.78513 l 0,4.89857 -0.32565,0.99655 c -0.17912,0.5481 -0.45766,1.21027 -0.619,1.47147 -0.42589,0.68955 -1.44436,1.69998 -2.14491,2.128 -1.65751,1.01269 -3.80479,1.27157 -5.56822,0.67131 -0.48476,-0.165 -1.15485,-0.4671 -1.48911,-0.67131 -0.68904,-0.42099 -1.71932,-1.43762 -2.12241,-2.09429 -0.60654,-0.9881 -1.05158,-2.75871 -0.9076,-3.6109 l 0.0711,-0.42112 1.55625,0.0305 1.55626,0.0305 0.008,0.71903 c 0.019,1.81633 1.43472,3.1338 3.3675,3.1338 1.36018,0 2.48426,-0.64147 3.02478,-1.72615 0.27947,-0.56083 0.28433,-0.61175 0.28433,-2.97907 0,-1.89083 -0.0312,-2.42048 -0.14532,-2.46426 -0.0799,-0.0307 -0.57235,0.0187 -1.09428,0.10972 -2.96995,0.51792 -6.10334,0.21487 -8.8847,-0.85929 -4.8977,-1.8915 -8.71703,-5.99225 -10.36317,-11.12677 -0.2283,-0.7121 -0.43991,-1.29472 -0.47025,-1.29472 -0.0303,0 -0.24194,0.58262 -0.47024,1.29472 -2.00119,6.24195 -7.23109,10.89907 -13.48318,12.0065 -1.46848,0.26011 -4.36144,0.25895 -5.68065,-0.002 -0.51567,-0.10212 -1.12347,-0.21469 -1.35067,-0.25018 l -0.41309,-0.0645 -0.0281,10.7415 -0.0281,10.74149 -1.73729,0.0304 -1.73728,0.0304 0,-13.24271 z m 41.08816,13.12037 c -3.9504,-0.38808 -7.76092,-2.14542 -10.62941,-4.90208 -2.68644,-2.5817 -4.33884,-5.46058 -5.09657,-8.87945 -0.23709,-1.06973 -0.503,-3.74109 -0.3993,-4.01134 0.0594,-0.15476 0.28529,-0.18021 1.60001,-0.18021 l 1.53086,0 0.0679,1.18657 c 0.33337,5.82665 4.24575,10.95595 9.81443,12.86717 1.75719,0.60308 2.82941,0.76825 4.98724,0.76825 2.15783,0 3.23005,-0.16517 4.98724,-0.76825 4.29454,-1.47393 7.81057,-5.05304 9.17497,-9.33957 l 0.34274,-1.07678 0,-22.2277 0,-22.22769 1.73728,0.0304 1.73729,0.0304 0.0306,20.90257 c 0.0268,18.35861 0.009,21.14421 -0.1446,22.88804 -0.2016,2.28501 -0.26836,2.63783 -0.71705,3.78929 -0.88575,2.27306 -4.36609,6.39516 -6.77989,8.03006 -3.6302,2.4588 -7.90031,3.54705 -12.24371,3.12037 z m -34.58827,-32.42477 c -3.9223,-0.60995 -6.46088,-4.5186 -5.24773,-8.0799 0.36452,-1.07008 0.69932,-1.61631 1.49018,-2.43128 0.77279,-0.79634 1.57892,-1.29551 2.71875,-1.6835 0.73877,-0.25147 1.06876,-0.30001 2.03956,-0.30001 0.9708,0 1.3008,0.0485 2.03956,0.30001 1.13984,0.38799 1.94597,0.88716 2.71876,1.6835 0.79086,0.81497 1.12565,1.3612 1.49018,2.43128 0.5449,1.59961 0.31744,3.56922 -0.58008,5.02291 -0.42107,0.682 -1.44225,1.69366 -2.13975,2.11982 -1.26655,0.77382 -3.11733,1.15676 -4.52943,0.93717 z m 2.48039,-3.45524 c 0.78866,-0.36261 1.22279,-0.76417 1.54472,-1.42887 0.39042,-0.80611 0.45419,-1.36208 0.24054,-2.09704 -0.25158,-0.86541 -0.76994,-1.49485 -1.57366,-1.91091 -1.20925,-0.62599 -2.4164,-0.59136 -3.57924,0.10269 -0.70298,0.41958 -1.22633,1.14053 -1.42299,1.96031 -0.36754,1.53209 0.78447,3.21961 2.47384,3.62378 0.65417,0.1565 1.67144,0.0467 2.31679,-0.24996 z m 32.04469,3.45524 c -3.92229,-0.60995 -6.46088,-4.5186 -5.24773,-8.0799 0.36453,-1.07008 0.69932,-1.61631 1.49018,-2.43128 0.77279,-0.79634 1.57892,-1.29551 2.71876,-1.6835 0.73877,-0.25147 1.06876,-0.30001 2.03956,-0.30001 0.9708,0 1.30079,0.0485 2.03956,0.30001 1.13983,0.38799 1.94596,0.88716 2.71875,1.6835 0.79086,0.81497 1.12566,1.3612 1.49018,2.43128 0.54491,1.59961 0.31744,3.56922 -0.58008,5.02291 -0.42107,0.682 -1.44224,1.69366 -2.13975,2.11982 -1.26655,0.77382 -3.11733,1.15676 -4.52943,0.93717 z m 2.48039,-3.45524 c 0.78866,-0.36261 1.22279,-0.76417 1.54472,-1.42887 0.39043,-0.80611 0.4542,-1.36208 0.24054,-2.09704 -0.25158,-0.86541 -0.76993,-1.49485 -1.57366,-1.91091 -1.20925,-0.62599 -2.41639,-0.59136 -3.57924,0.10269 -0.70298,0.41958 -1.22633,1.14053 -1.42299,1.96031 -0.36754,1.53209 0.78447,3.21961 2.47384,3.62378 0.65417,0.1565 1.67144,0.0467 2.31679,-0.24996 z"
           style="fill:#6d4711" />
        <path
           inkscape:connector-curvature="0"
           id="path4159"
           d="m -149.81254,1008.8823 c -11.41408,-0.8499 -22.11585,-5.1993 -30.94021,-12.57458 -1.53859,-1.28593 -4.5997,-4.30591 -5.90481,-5.82547 -4.74452,-5.52412 -8.16158,-11.53045 -10.38867,-18.26069 -1.10777,-3.34767 -1.92261,-7.16859 -2.36863,-11.10688 -0.26932,-2.37802 -0.26932,-8.38905 0,-10.76707 0.58056,-5.12627 1.70994,-9.71669 3.50606,-14.25054 0.71886,-1.81458 2.68728,-5.79311 3.68374,-7.44551 3.62069,-6.00404 8.34249,-11.24016 13.89899,-15.41291 16.16287,-12.13781 38.0465,-14.20831 56.25493,-5.32252 5.31698,2.5947 9.76424,5.73577 14.03534,9.91307 4.56245,4.46226 7.81549,8.95535 10.65754,14.72026 2.737718,5.55324 4.365085,11.22146 5.109911,17.79815 0.269318,2.37802 0.269318,8.38905 0,10.76707 -0.744826,6.57669 -2.372193,12.24491 -5.109911,17.79815 -2.186772,4.43571 -4.41271,7.80323 -7.64738,11.56942 -1.30512,1.51956 -4.36623,4.53954 -5.90482,5.82547 -8.92065,7.45578 -19.54247,11.73878 -31.21597,12.58708 -1.79518,0.1304 -5.83527,0.1239 -7.66611,-0.013 z m 9.92734,-1.4642 c 6.27833,-0.7605 11.71282,-2.3329 17.15427,-4.9633 8.53507,-4.12594 15.81353,-10.52244 21.04431,-18.4943 4.514407,-6.88008 7.252048,-14.60027 8.152414,-22.98992 0.190219,-1.77251 0.190219,-8.70636 0,-10.47887 -0.900366,-8.38965 -3.638007,-16.10984 -8.152414,-22.98992 -5.23078,-7.97186 -12.50924,-14.36836 -21.04431,-18.4943 -5.46462,-2.64165 -10.86348,-4.20101 -17.20942,-4.97063 -2.38703,-0.28949 -9.41548,-0.28949 -11.80251,0 -6.34594,0.76962 -11.7448,2.32898 -17.20942,4.97063 -11.13556,5.38304 -20.20313,14.75391 -25.09211,25.93139 -2.10916,4.82211 -3.37563,9.53349 -4.04734,15.05647 -0.24456,2.01085 -0.28048,8.89531 -0.0573,10.97523 0.90036,8.38965 3.638,16.10984 8.15241,22.98992 5.98019,9.11397 14.60276,16.1254 24.74152,20.1186 4.96098,1.9538 9.78529,3.0435 15.66314,3.5377 1.35615,0.114 8.29796,-0.028 9.70673,-0.1987 z m -41.78027,-22.4757 c -0.21361,-0.21362 -0.19597,-58.36428 0.0178,-58.54166 0.10369,-0.0861 0.66294,-0.11704 1.73728,-0.0962 l 1.58436,0.0307 0,29.34081 0,29.34081 -1.60211,0.0304 c -1.15268,0.0219 -1.64004,-0.008 -1.73729,-0.10478 z m 10.85844,0.056 c -0.0404,-0.0404 -0.0735,-5.99841 -0.0735,-13.23992 0,-14.6565 -0.0638,-13.56027 0.75727,-13.01692 0.66456,0.43978 2.20699,1.18867 3.01555,1.46412 1.45838,0.49682 2.46159,0.64644 4.3345,0.64644 2.54507,0 4.02562,-0.35293 6.22938,-1.48492 3.8086,-1.95635 6.57354,-5.65515 7.52238,-10.06307 0.34906,-1.6216 0.34906,-4.60697 0,-6.22856 -0.94518,-4.3909 -3.72505,-8.12004 -7.48485,-10.04075 -2.27128,-1.1603 -3.71381,-1.50724 -6.26691,-1.50724 -1.91098,0 -2.97263,0.16367 -4.41215,0.68022 -1.00017,0.3589 -2.39773,1.05753 -3.06118,1.53027 -0.28831,0.20543 -0.54954,0.37351 -0.58051,0.37351 -0.031,0 -0.0433,-1.74969 -0.0273,-3.88821 l 0.029,-3.88821 1.58436,-0.0307 c 1.07434,-0.0208 1.63359,0.0102 1.73728,0.0962 0.11341,0.0941 0.15293,0.44053 0.15293,1.34053 l 0,1.21363 0.30333,-0.0649 c 0.16684,-0.0357 0.67561,-0.14504 1.13062,-0.243 1.8363,-0.39534 4.41372,-0.39402 6.34246,0.003 6.25706,1.2888 11.22837,5.88655 13.18924,12.19815 0.18706,0.60211 0.38204,1.09475 0.43328,1.09475 0.0513,0 0.24622,-0.49264 0.43329,-1.09475 1.96082,-6.31145 6.93659,-10.91316 13.18923,-12.19767 1.94119,-0.3988 4.52917,-0.39927 6.34247,-10e-4 0.455,0.0999 1.01341,0.20978 1.24091,0.2442 l 0.41364,0.0626 0,-1.26952 c 0,-0.94764 0.0388,-1.30168 0.15293,-1.39642 0.10369,-0.0861 0.66294,-0.11704 1.73728,-0.0962 l 1.58436,0.0307 0.0291,3.67049 c 0.0252,3.17717 0.007,3.67902 -0.1362,3.73391 -0.0909,0.0349 -0.6748,-0.18371 -1.29756,-0.48574 -3.07777,-1.49272 -3.60244,-1.62503 -6.42688,-1.62069 -1.71494,0.003 -2.4148,0.0484 -3.14365,0.20565 -5.5226,1.19133 -9.81125,5.59555 -11.04932,11.34709 -0.34906,1.62159 -0.34906,4.60696 0,6.22856 0.94885,4.40792 3.71379,8.10672 7.52238,10.06307 2.20376,1.13199 3.68431,1.48492 6.22938,1.48492 1.87303,0 2.87644,-0.14967 4.3345,-0.64651 0.8283,-0.28225 2.72532,-1.20812 2.83331,-1.38284 0.24109,-0.39011 0.27769,0.24057 0.27769,4.78513 l 0,4.89857 -0.32565,0.99655 c -0.17912,0.5481 -0.45766,1.21027 -0.619,1.47147 -0.42589,0.68955 -1.44436,1.69998 -2.14491,2.128 -1.65751,1.01269 -3.80479,1.27157 -5.56822,0.67131 -0.48476,-0.165 -1.15485,-0.4671 -1.48911,-0.67131 -0.6975,-0.42616 -1.71868,-1.43782 -2.13975,-2.11982 -0.62517,-1.01256 -1.09378,-3.056 -0.84867,-3.70068 l 0.11645,-0.3063 1.46303,0.0308 1.46304,0.0308 0.0622,0.82728 c 0.0764,1.01615 0.34104,1.56153 1.08002,2.22593 1.29261,1.16218 3.37206,1.16218 4.66467,0 0.95199,-0.85591 0.97678,-0.95405 0.97678,-3.8669 0,-1.91191 -0.0334,-2.54332 -0.13629,-2.57762 -0.075,-0.025 -0.45964,0.0226 -0.85485,0.10583 -1.77838,0.37433 -4.46419,0.36487 -6.34406,-0.0223 -6.26019,-1.28944 -11.22739,-5.88339 -13.18923,-12.19815 -0.18707,-0.60211 -0.38204,-1.09475 -0.43329,-1.09475 -0.0512,0 -0.24622,0.49264 -0.43328,1.09475 -1.43778,4.6279 -4.45032,8.32605 -8.61163,10.57152 -3.19343,1.72319 -7.50682,2.36718 -10.92007,1.63037 -0.45501,-0.0982 -0.96378,-0.20779 -1.13062,-0.24348 l -0.30333,-0.0649 0,10.6912 c 0,8.1683 -0.0312,10.72243 -0.13237,10.82356 -0.14236,0.14236 -3.18641,0.19624 -3.32382,0.0588 z m 41.95221,-2.5e-4 c -5.70606,-0.32672 -11.03048,-3.35527 -14.14477,-8.0456 -1.14552,-1.72524 -2.18446,-4.24913 -2.5613,-6.22216 -0.25247,-1.32189 -0.40146,-3.43574 -0.25468,-3.61349 0.0862,-0.10435 0.49185,-0.133 1.56186,-0.1103 l 1.44546,0.0307 0.077,1.10304 c 0.26179,3.74902 1.71026,6.9105 4.35638,9.50839 1.98185,1.94574 4.49564,3.27679 7.40068,3.91867 1.53959,0.34018 4.57425,0.34018 6.11384,0 1.36146,-0.30082 2.56404,-0.71359 3.62234,-1.24331 3.47918,-1.7415 6.07613,-4.66674 7.42245,-8.36078 l 0.34808,-0.95507 0.0552,-22.39167 0.0551,-22.39167 1.6111,-0.0304 c 1.27872,-0.0242 1.63769,0.002 1.73999,0.12486 0.0976,0.11759 0.1206,5.33417 0.0948,21.48452 -0.0379,23.71326 -0.0227,23.20026 -0.75727,25.49843 -0.75368,2.35785 -3.99582,6.41822 -6.57951,8.23997 -3.44033,2.42578 -7.65925,3.68197 -11.60678,3.45594 z m -35.52585,-32.46773 c -3.9223,-0.60995 -6.46088,-4.5186 -5.24773,-8.0799 0.36452,-1.07008 0.69932,-1.61631 1.49018,-2.43128 0.77279,-0.79634 1.57892,-1.29551 2.71875,-1.6835 0.73877,-0.25147 1.06876,-0.30001 2.03956,-0.30001 0.9708,0 1.3008,0.0485 2.03956,0.30001 1.13984,0.38799 1.94597,0.88716 2.71876,1.6835 0.79086,0.81497 1.12565,1.3612 1.49018,2.43128 0.5449,1.59961 0.31744,3.56922 -0.58008,5.02291 -0.42107,0.682 -1.44225,1.69366 -2.13975,2.11982 -1.26655,0.77382 -3.11733,1.15676 -4.52943,0.93717 z m 2.21191,-3.2722 c 0.74209,-0.23967 1.60984,-1.01578 1.94825,-1.74249 0.94964,-2.03931 -0.73175,-4.35924 -3.1594,-4.35924 -0.92229,0 -1.69157,0.28647 -2.34366,0.87276 -1.44862,1.30243 -1.44809,3.23985 0.001,4.54293 0.31343,0.2818 0.7934,0.58077 1.09228,0.68036 0.70175,0.23384 1.74734,0.23625 2.46127,0.006 z m 32.31317,3.2722 c -3.92229,-0.60995 -6.46088,-4.5186 -5.24773,-8.0799 0.36453,-1.07008 0.69932,-1.61631 1.49018,-2.43128 0.77279,-0.79634 1.57892,-1.29551 2.71876,-1.6835 0.73877,-0.25147 1.06876,-0.30001 2.03956,-0.30001 0.9708,0 1.30079,0.0485 2.03956,0.30001 1.13983,0.38799 1.94596,0.88716 2.71875,1.6835 0.79086,0.81497 1.12566,1.3612 1.49018,2.43128 0.54491,1.59961 0.31744,3.56922 -0.58008,5.02291 -0.42107,0.682 -1.44224,1.69366 -2.13975,2.11982 -1.26655,0.77382 -3.11733,1.15676 -4.52943,0.93717 z m 2.21191,-3.2722 c 0.74209,-0.23967 1.60984,-1.01578 1.94825,-1.74249 0.94965,-2.03931 -0.73175,-4.35924 -3.15939,-4.35924 -0.9223,0 -1.69158,0.28647 -2.34366,0.87276 -1.44863,1.30243 -1.44809,3.23985 10e-4,4.54293 0.31343,0.2818 0.79341,0.58077 1.09228,0.68036 0.70175,0.23384 1.74734,0.23625 2.46127,0.006 z"
           style="fill:#553507" />
        <path
           inkscape:connector-curvature="0"
           id="path4157"
           d="m -148.78652,1008.8896 c -15.44328,-0.8406 -29.67972,-8.161 -39.28734,-20.20158 -5.32489,-6.67334 -8.98884,-14.60251 -10.59062,-22.91923 -2.21021,-11.47577 -0.59556,-23.20449 4.63148,-33.64266 4.35647,-8.6997 10.86246,-15.91685 19.0712,-21.15586 7.27718,-4.64448 15.22758,-7.36228 24.13414,-8.25014 2.50053,-0.24927 7.47158,-0.24927 9.97211,0 8.90656,0.88786 16.85696,3.60566 24.13414,8.25014 10.45888,6.6751 18.284212,16.7651 22.096354,28.49107 4.274669,13.14868 3.188431,27.46657 -3.025147,39.87482 -3.801267,7.59095 -9.089677,13.8876 -15.991787,19.04059 -9.94456,7.42445 -22.55921,11.19785 -35.14453,10.51285 z m 8.79102,-1.3598 c 6.37558,-0.7665 11.74723,-2.3118 17.26254,-4.966 8.2129,-3.95247 15.48087,-10.21325 20.5619,-17.71245 4.943298,-7.29593 7.767417,-15.04394 8.744632,-23.99108 0.194112,-1.77718 0.194112,-8.48107 0,-10.25825 -0.562903,-5.15375 -1.578039,-9.31027 -3.407814,-13.95343 -3.318658,-8.42131 -8.936878,-15.92582 -16.302288,-21.77573 -1.48589,-1.18015 -4.83134,-3.4194 -6.61823,-4.42986 -6.3042,-3.56493 -13.19647,-5.73878 -20.84742,-6.57536 -1.78299,-0.19496 -8.69586,-0.19496 -10.47885,0 -6.5409,0.7152 -12.15528,2.28948 -17.75891,4.9796 -14.84765,7.12789 -25.5524,20.8797 -28.66955,36.83023 -0.69463,3.55442 -0.94474,6.21607 -0.94474,10.05367 0,3.83761 0.25011,6.49926 0.94474,10.05368 1.47971,7.57171 4.65735,14.68911 9.37426,20.99684 2.63199,3.51965 5.9691,6.93305 9.58855,9.80777 1.48589,1.18015 4.83134,3.41937 6.61823,4.42987 6.2921,3.5581 13.70099,5.8914 20.79226,6.5481 0.69767,0.065 1.44223,0.137 1.65456,0.1608 1.0471,0.1173 8.08358,-0.03 9.48613,-0.1984 z m -41.64382,-22.70603 c -0.0288,-0.0758 -0.0397,-13.24197 -0.0241,-29.25808 l 0.0283,-29.1202 1.62698,-0.0305 1.62698,-0.0305 0,29.2886 0,29.28861 -1.60287,0 c -1.18083,0 -1.61665,-0.0363 -1.65523,-0.13788 z m 10.86906,-13.09563 c 0,-7.28167 0.0321,-13.2394 0.0713,-13.2394 0.0392,0 0.32463,0.16721 0.63425,0.37157 3.95278,2.60909 9.53929,2.78669 13.85454,0.44045 2.79635,-1.5204 5.26679,-4.34631 6.46274,-7.39266 2.48974,-6.34195 0.59098,-13.55942 -4.62907,-17.59573 -2.18245,-1.68754 -4.46319,-2.58362 -7.25236,-2.84938 -2.79107,-0.26593 -6.05259,0.51745 -8.32179,1.9988 l -0.81962,0.53505 0,-3.8062 0,-3.8062 1.62698,0.0305 1.62698,0.0305 0.0316,1.21182 c 0.0174,0.6665 0.0695,1.24971 0.11576,1.29601 0.0463,0.0463 0.53604,-0.0144 1.08832,-0.13498 6.73294,-1.46948 13.67638,1.42496 17.59315,7.33388 0.84369,1.27282 1.63025,2.90449 2.07373,4.30185 0.45414,1.43094 0.52385,1.5994 0.66186,1.5994 0.13801,0 0.20773,-0.16846 0.66186,-1.5994 0.44348,-1.39736 1.23004,-3.02903 2.07374,-4.30185 3.91691,-5.90915 10.86017,-8.80337 17.59372,-7.33375 1.51928,0.33159 1.38878,0.43528 1.42471,-1.13207 l 0.031,-1.35122 1.62698,-0.0305 1.62698,-0.0305 0,3.64298 0,3.64297 -0.24818,-4.4e-4 c -0.1365,-2.2e-4 -0.42192,-0.10694 -0.63425,-0.23713 -0.72879,-0.44688 -2.78134,-1.30628 -3.84455,-1.60972 -0.99587,-0.28422 -1.19106,-0.30276 -3.04944,-0.28953 -2.33732,0.0166 -3.65017,0.24237 -5.40488,0.9293 -8.77136,3.43385 -11.95111,14.75277 -6.36616,22.66161 1.17376,1.66217 3.0606,3.35894 4.76675,4.28659 3.51786,1.91269 7.80487,2.1819 11.5338,0.72427 0.61056,-0.23867 1.39233,-0.60389 1.73729,-0.81161 l 0.62719,-0.37767 0,4.91107 c 0,4.18694 -0.0262,5.00302 -0.17792,5.53472 -0.76153,2.66943 -3.09213,4.53705 -5.89807,4.72642 -2.53235,0.1709 -5.0671,-1.20089 -6.19897,-3.35484 -0.48714,-0.92704 -0.76309,-2.03439 -0.71846,-2.88311 l 0.0327,-0.62242 1.44683,-0.0307 1.44682,-0.0307 0.052,0.81021 c 0.0871,1.35759 0.6961,2.23693 1.94753,2.81217 1.65754,0.76192 3.7407,0.17802 4.61984,-1.29492 l 0.35918,-0.6018 0,-2.5729 c 0,-2.20226 -0.0242,-2.58219 -0.16795,-2.63735 -0.0924,-0.0354 -0.72524,0.023 -1.40637,0.12979 -1.54346,0.24208 -3.84856,0.24707 -5.26451,0.0114 -6.30075,-1.04872 -11.6202,-5.68197 -13.56733,-11.81718 -0.45413,-1.43093 -0.52385,-1.5994 -0.66186,-1.5994 -0.13801,0 -0.20772,0.16847 -0.66186,1.5994 -1.65986,5.23006 -5.88377,9.51266 -11.04783,11.20134 -2.70128,0.88334 -5.74325,1.05353 -8.46018,0.47332 -0.46365,-0.099 -0.94227,-0.18521 -1.06361,-0.19154 -0.21882,-0.0114 -0.22105,0.0756 -0.27576,10.7431 l -0.0551,10.75462 -1.62698,0.0305 -1.62698,0.0305 0,-13.23941 z m 41.30877,13.11213 c -7.81962,-0.64167 -14.44832,-6.46129 -15.99029,-14.03853 -0.18916,-0.92955 -0.41545,-3.4683 -0.32254,-3.61863 0.0308,-0.0499 0.69415,-0.0907 1.47407,-0.0907 l 1.41802,0 0.065,0.85485 c 0.29794,3.92123 1.60977,6.9136 4.16438,9.49927 1.70859,1.72937 3.63704,2.92905 5.95506,3.70463 1.61407,0.54005 2.95196,0.74992 4.78059,0.74992 2.57132,0 4.74155,-0.52562 7.03556,-1.70397 1.41589,-0.72729 2.51828,-1.562 3.78209,-2.86371 1.64173,-1.69097 2.65549,-3.33628 3.38757,-5.49793 l 0.35488,-1.04789 0.0286,-22.25673 0.0286,-22.25673 1.62592,0.0305 1.62592,0.0305 0,21.34379 c 0,19.69994 -0.015,21.47341 -0.19497,23.02684 -0.31278,2.70002 -0.79011,3.79761 -2.81122,6.46424 -1.0767,1.42058 -1.86487,2.2948 -2.87664,3.19073 -2.27748,2.0167 -5.20409,3.49716 -8.19369,4.14489 -0.90833,0.19679 -3.55554,0.48426 -4.05689,0.44055 -0.0974,-0.008 -0.67338,-0.0562 -1.28005,-0.10595 z m -35.5492,-32.52318 c -2.89169,-0.78434 -4.87388,-3.2314 -4.87388,-6.01692 0,-4.00791 4.08023,-7.04068 8.09199,-6.01464 3.44626,0.8814 5.5228,4.1079 4.75101,7.38206 -0.49334,2.0929 -2.0739,3.75573 -4.3225,4.5475 -0.95327,0.33566 -2.61392,0.38211 -3.64662,0.102 z m 3.18107,-3.11344 c 0.80851,-0.37163 1.20994,-0.73147 1.59845,-1.43283 0.28474,-0.51403 0.32583,-0.69952 0.32583,-1.47065 0,-0.77113 -0.0411,-0.95662 -0.32583,-1.47065 -0.38717,-0.69895 -0.78481,-1.05644 -1.60448,-1.44246 -0.50413,-0.23741 -0.76515,-0.2857 -1.54426,-0.2857 -0.7791,0 -1.04012,0.0483 -1.54425,0.2857 -0.81716,0.38484 -1.21922,0.74504 -1.58808,1.42277 -1.23049,2.26081 0.58626,4.85091 3.30382,4.71019 0.5287,-0.0274 0.97072,-0.1288 1.3788,-0.31637 z m 31.34401,3.11344 c -2.89169,-0.78434 -4.87388,-3.2314 -4.87388,-6.01692 0,-4.00791 4.08024,-7.04068 8.092,-6.01464 3.44626,0.8814 5.52279,4.1079 4.751,7.38206 -0.49333,2.0929 -2.0739,3.75573 -4.3225,4.5475 -0.95327,0.33566 -2.61392,0.38211 -3.64662,0.102 z m 3.18107,-3.11344 c 0.80852,-0.37163 1.20995,-0.73147 1.59845,-1.43283 0.28474,-0.51403 0.32584,-0.69952 0.32584,-1.47065 0,-0.77113 -0.0411,-0.95662 -0.32584,-1.47065 -0.38717,-0.69895 -0.78481,-1.05644 -1.60448,-1.44246 -0.50413,-0.23741 -0.76515,-0.2857 -1.54425,-0.2857 -0.77911,0 -1.04013,0.0483 -1.54426,0.2857 -0.81715,0.38484 -1.21922,0.74504 -1.58808,1.42277 -1.23049,2.26081 0.58626,4.85091 3.30383,4.71019 0.52869,-0.0274 0.97071,-0.1288 1.37879,-0.31637 z"
           style="fill:#040302" />
      </g>
    </g>
  </g>
</svg>
